%!PS-Adobe-3.0 EPSF-3.0
%%Title: gibbs_samples.eps
%%Creator: matplotlib version 3.1.1, http://matplotlib.org/
%%CreationDate: Sat Oct  5 13:21:50 2019
%%Orientation: portrait
%%BoundingBox: -414.0 36.0 1026.0 756.0
%%EndComments
%%BeginProlog
/mpldict 8 dict def
mpldict begin
/m { moveto } bind def
/l { lineto } bind def
/r { rlineto } bind def
/c { curveto } bind def
/cl { closepath } bind def
/box {
m
1 index 0 r
0 exch r
neg 0 r
cl
} bind def
/clipbox {
box
clip
newpath
} bind def
%!PS-Adobe-3.0 Resource-Font
%%Title: DejaVu Sans
%%Copyright: Copyright (c) 2003 by Bitstream, Inc. All Rights Reserved. Copyright (c) 2006 by Tavmjong Bah. All Rights Reserved. DejaVu changes are in public domain 
%%Creator: Converted from TrueType to type 3 by PPR
25 dict begin
/_d{bind def}bind def
/_m{moveto}_d
/_l{lineto}_d
/_cl{closepath eofill}_d
/_c{curveto}_d
/_sc{7 -1 roll{setcachedevice}{pop pop pop pop pop pop}ifelse}_d
/_e{exec}_d
/FontName /DejaVuSans def
/PaintType 0 def
/FontMatrix[.001 0 0 .001 0 0]def
/FontBBox[-1021 -463 1793 1232]def
/FontType 3 def
/Encoding [ /space /zero /one /two /three /four /five /six /eight /S /a /d /e /i /l /m /n /p /u /v /x ] def
/FontInfo 10 dict dup begin
/FamilyName (DejaVu Sans) def
/FullName (DejaVu Sans) def
/Notice (Copyright (c) 2003 by Bitstream, Inc. All Rights Reserved. Copyright (c) 2006 by Tavmjong Bah. All Rights Reserved. DejaVu changes are in public domain ) def
/Weight (Book) def
/Version (Version 2.35) def
/ItalicAngle 0.0 def
/isFixedPitch false def
/UnderlinePosition -130 def
/UnderlineThickness 90 def
end readonly def
/CharStrings 22 dict dup begin
/.notdef 0 def
/space{318 0 0 0 0 0 _sc
}_d
/zero{636 0 66 -13 570 742 _sc
318 664 _m
267 664 229 639 203 589 _c
177 539 165 464 165 364 _c
165 264 177 189 203 139 _c
229 89 267 64 318 64 _c
369 64 407 89 433 139 _c
458 189 471 264 471 364 _c
471 464 458 539 433 589 _c
407 639 369 664 318 664 _c
318 742 _m
399 742 461 709 505 645 _c
548 580 570 486 570 364 _c
570 241 548 147 505 83 _c
461 19 399 -13 318 -13 _c
236 -13 173 19 130 83 _c
87 147 66 241 66 364 _c
66 486 87 580 130 645 _c
173 709 236 742 318 742 _c
_cl}_d
/one{636 0 110 0 544 729 _sc
124 83 _m
285 83 _l
285 639 _l
110 604 _l
110 694 _l
284 729 _l
383 729 _l
383 83 _l
544 83 _l
544 0 _l
124 0 _l
124 83 _l
_cl}_d
/two{{636 0 73 0 536 742 _sc
192 83 _m
536 83 _l
536 0 _l
73 0 _l
73 83 _l
110 121 161 173 226 239 _c
290 304 331 346 348 365 _c
380 400 402 430 414 455 _c
426 479 433 504 433 528 _c
433 566 419 598 392 622 _c
365 646 330 659 286 659 _c
255 659 222 653 188 643 _c
154 632 117 616 78 594 _c
78 694 _l
118 710 155 722 189 730 _c
223 738 255 742 284 742 _c
}_e{359 742 419 723 464 685 _c
509 647 532 597 532 534 _c
532 504 526 475 515 449 _c
504 422 484 390 454 354 _c
446 344 420 317 376 272 _c
332 227 271 164 192 83 _c
_cl}_e}_d
/three{{636 0 76 -13 556 742 _sc
406 393 _m
453 383 490 362 516 330 _c
542 298 556 258 556 212 _c
556 140 531 84 482 45 _c
432 6 362 -13 271 -13 _c
240 -13 208 -10 176 -4 _c
144 1 110 10 76 22 _c
76 117 _l
103 101 133 89 166 81 _c
198 73 232 69 268 69 _c
330 69 377 81 409 105 _c
441 129 458 165 458 212 _c
458 254 443 288 413 312 _c
383 336 341 349 287 349 _c
}_e{202 349 _l
202 430 _l
291 430 _l
339 430 376 439 402 459 _c
428 478 441 506 441 543 _c
441 580 427 609 401 629 _c
374 649 336 659 287 659 _c
260 659 231 656 200 650 _c
169 644 135 635 98 623 _c
98 711 _l
135 721 170 729 203 734 _c
235 739 266 742 296 742 _c
370 742 429 725 473 691 _c
517 657 539 611 539 553 _c
539 513 527 479 504 451 _c
481 423 448 403 406 393 _c
_cl}_e}_d
/four{636 0 49 0 580 729 _sc
378 643 _m
129 254 _l
378 254 _l
378 643 _l
352 729 _m
476 729 _l
476 254 _l
580 254 _l
580 172 _l
476 172 _l
476 0 _l
378 0 _l
378 172 _l
49 172 _l
49 267 _l
352 729 _l
_cl}_d
/five{{636 0 77 -13 549 729 _sc
108 729 _m
495 729 _l
495 646 _l
198 646 _l
198 467 _l
212 472 227 476 241 478 _c
255 480 270 482 284 482 _c
365 482 429 459 477 415 _c
525 370 549 310 549 234 _c
549 155 524 94 475 51 _c
426 8 357 -13 269 -13 _c
238 -13 207 -10 175 -6 _c
143 -1 111 6 77 17 _c
77 116 _l
106 100 136 88 168 80 _c
199 72 232 69 267 69 _c
}_e{323 69 368 83 401 113 _c
433 143 450 183 450 234 _c
450 284 433 324 401 354 _c
368 384 323 399 267 399 _c
241 399 214 396 188 390 _c
162 384 135 375 108 363 _c
108 729 _l
_cl}_e}_d
/six{{636 0 70 -13 573 742 _sc
330 404 _m
286 404 251 388 225 358 _c
199 328 186 286 186 234 _c
186 181 199 139 225 109 _c
251 79 286 64 330 64 _c
374 64 409 79 435 109 _c
461 139 474 181 474 234 _c
474 286 461 328 435 358 _c
409 388 374 404 330 404 _c
526 713 _m
526 623 _l
501 635 476 644 451 650 _c
425 656 400 659 376 659 _c
310 659 260 637 226 593 _c
}_e{192 549 172 482 168 394 _c
187 422 211 444 240 459 _c
269 474 301 482 336 482 _c
409 482 467 459 509 415 _c
551 371 573 310 573 234 _c
573 159 550 99 506 54 _c
462 9 403 -13 330 -13 _c
246 -13 181 19 137 83 _c
92 147 70 241 70 364 _c
70 479 97 571 152 639 _c
206 707 280 742 372 742 _c
396 742 421 739 447 735 _c
472 730 498 723 526 713 _c
_cl}_e}_d
/eight{{636 0 68 -13 568 742 _sc
318 346 _m
271 346 234 333 207 308 _c
180 283 167 249 167 205 _c
167 161 180 126 207 101 _c
234 76 271 64 318 64 _c
364 64 401 76 428 102 _c
455 127 469 161 469 205 _c
469 249 455 283 429 308 _c
402 333 365 346 318 346 _c
219 388 _m
177 398 144 418 120 447 _c
96 476 85 511 85 553 _c
85 611 105 657 147 691 _c
188 725 245 742 318 742 _c
}_e{390 742 447 725 489 691 _c
530 657 551 611 551 553 _c
551 511 539 476 515 447 _c
491 418 459 398 417 388 _c
464 377 501 355 528 323 _c
554 291 568 251 568 205 _c
568 134 546 80 503 43 _c
459 5 398 -13 318 -13 _c
237 -13 175 5 132 43 _c
89 80 68 134 68 205 _c
68 251 81 291 108 323 _c
134 355 171 377 219 388 _c
183 544 _m
183 506 194 476 218 455 _c
}_e{242 434 275 424 318 424 _c
360 424 393 434 417 455 _c
441 476 453 506 453 544 _c
453 582 441 611 417 632 _c
393 653 360 664 318 664 _c
275 664 242 653 218 632 _c
194 611 183 582 183 544 _c
_cl}_e}_d
/S{{635 0 66 -13 579 742 _sc
535 705 _m
535 609 _l
497 627 462 640 429 649 _c
395 657 363 662 333 662 _c
279 662 237 651 208 631 _c
179 610 165 580 165 542 _c
165 510 174 485 194 469 _c
213 452 250 439 304 429 _c
364 417 _l
437 403 491 378 526 343 _c
561 307 579 260 579 201 _c
579 130 555 77 508 41 _c
460 5 391 -13 300 -13 _c
265 -13 228 -9 189 -2 _c
}_e{150 5 110 16 69 32 _c
69 134 _l
109 111 148 94 186 83 _c
224 71 262 66 300 66 _c
356 66 399 77 430 99 _c
460 121 476 152 476 194 _c
476 230 465 258 443 278 _c
421 298 385 313 335 323 _c
275 335 _l
201 349 148 372 115 404 _c
82 435 66 478 66 534 _c
66 598 88 649 134 686 _c
179 723 242 742 322 742 _c
356 742 390 739 426 733 _c
461 727 497 717 535 705 _c
}_e{_cl}_e}_d
/a{{613 0 60 -13 522 560 _sc
343 275 _m
270 275 220 266 192 250 _c
164 233 150 205 150 165 _c
150 133 160 107 181 89 _c
202 70 231 61 267 61 _c
317 61 357 78 387 114 _c
417 149 432 196 432 255 _c
432 275 _l
343 275 _l
522 312 _m
522 0 _l
432 0 _l
432 83 _l
411 49 385 25 355 10 _c
325 -5 287 -13 243 -13 _c
187 -13 142 2 109 33 _c
76 64 60 106 60 159 _c
}_e{60 220 80 266 122 298 _c
163 329 224 345 306 345 _c
432 345 _l
432 354 _l
432 395 418 427 391 450 _c
364 472 326 484 277 484 _c
245 484 215 480 185 472 _c
155 464 127 453 100 439 _c
100 522 _l
132 534 164 544 195 550 _c
226 556 256 560 286 560 _c
365 560 424 539 463 498 _c
502 457 522 395 522 312 _c
_cl}_e}_d
/d{{635 0 55 -13 544 760 _sc
454 464 _m
454 760 _l
544 760 _l
544 0 _l
454 0 _l
454 82 _l
435 49 411 25 382 10 _c
353 -5 319 -13 279 -13 _c
213 -13 159 13 117 65 _c
75 117 55 187 55 273 _c
55 359 75 428 117 481 _c
159 533 213 560 279 560 _c
319 560 353 552 382 536 _c
411 520 435 496 454 464 _c
148 273 _m
148 207 161 155 188 117 _c
215 79 253 61 301 61 _c
}_e{348 61 385 79 413 117 _c
440 155 454 207 454 273 _c
454 339 440 390 413 428 _c
385 466 348 485 301 485 _c
253 485 215 466 188 428 _c
161 390 148 339 148 273 _c
_cl}_e}_d
/e{{615 0 55 -13 562 560 _sc
562 296 _m
562 252 _l
149 252 _l
153 190 171 142 205 110 _c
238 78 284 62 344 62 _c
378 62 412 66 444 74 _c
476 82 509 95 541 113 _c
541 28 _l
509 14 476 3 442 -3 _c
408 -9 373 -13 339 -13 _c
251 -13 182 12 131 62 _c
80 112 55 181 55 268 _c
55 357 79 428 127 481 _c
175 533 241 560 323 560 _c
397 560 455 536 498 489 _c
}_e{540 441 562 377 562 296 _c
472 322 _m
471 371 457 410 431 440 _c
404 469 368 484 324 484 _c
274 484 234 469 204 441 _c
174 413 156 373 152 322 _c
472 322 _l
_cl}_e}_d
/i{278 0 94 0 184 760 _sc
94 547 _m
184 547 _l
184 0 _l
94 0 _l
94 547 _l
94 760 _m
184 760 _l
184 646 _l
94 646 _l
94 760 _l
_cl}_d
/l{278 0 94 0 184 760 _sc
94 760 _m
184 760 _l
184 0 _l
94 0 _l
94 760 _l
_cl}_d
/m{{974 0 91 0 889 560 _sc
520 442 _m
542 482 569 511 600 531 _c
631 550 668 560 711 560 _c
767 560 811 540 842 500 _c
873 460 889 403 889 330 _c
889 0 _l
799 0 _l
799 327 _l
799 379 789 418 771 444 _c
752 469 724 482 686 482 _c
639 482 602 466 575 435 _c
548 404 535 362 535 309 _c
535 0 _l
445 0 _l
445 327 _l
445 379 435 418 417 444 _c
398 469 369 482 331 482 _c
}_e{285 482 248 466 221 435 _c
194 404 181 362 181 309 _c
181 0 _l
91 0 _l
91 547 _l
181 547 _l
181 462 _l
201 495 226 520 255 536 _c
283 552 317 560 357 560 _c
397 560 430 550 458 530 _c
486 510 506 480 520 442 _c
_cl}_e}_d
/n{634 0 91 0 549 560 _sc
549 330 _m
549 0 _l
459 0 _l
459 327 _l
459 379 448 417 428 443 _c
408 469 378 482 338 482 _c
289 482 251 466 223 435 _c
195 404 181 362 181 309 _c
181 0 _l
91 0 _l
91 547 _l
181 547 _l
181 462 _l
202 494 227 519 257 535 _c
286 551 320 560 358 560 _c
420 560 468 540 500 501 _c
532 462 549 405 549 330 _c
_cl}_d
/p{{635 0 91 -207 580 560 _sc
181 82 _m
181 -207 _l
91 -207 _l
91 547 _l
181 547 _l
181 464 _l
199 496 223 520 252 536 _c
281 552 316 560 356 560 _c
422 560 476 533 518 481 _c
559 428 580 359 580 273 _c
580 187 559 117 518 65 _c
476 13 422 -13 356 -13 _c
316 -13 281 -5 252 10 _c
223 25 199 49 181 82 _c
487 273 _m
487 339 473 390 446 428 _c
418 466 381 485 334 485 _c
}_e{286 485 249 466 222 428 _c
194 390 181 339 181 273 _c
181 207 194 155 222 117 _c
249 79 286 61 334 61 _c
381 61 418 79 446 117 _c
473 155 487 207 487 273 _c
_cl}_e}_d
/u{634 0 85 -13 543 560 _sc
85 216 _m
85 547 _l
175 547 _l
175 219 _l
175 167 185 129 205 103 _c
225 77 255 64 296 64 _c
344 64 383 79 411 110 _c
439 141 453 183 453 237 _c
453 547 _l
543 547 _l
543 0 _l
453 0 _l
453 84 _l
431 50 405 26 377 10 _c
348 -5 315 -13 277 -13 _c
214 -13 166 6 134 45 _c
101 83 85 140 85 216 _c
311 560 _m
311 560 _l
_cl}_d
/v{592 0 30 0 562 547 _sc
30 547 _m
125 547 _l
296 88 _l
467 547 _l
562 547 _l
357 0 _l
235 0 _l
30 547 _l
_cl}_d
/x{592 0 29 0 559 547 _sc
549 547 _m
351 281 _l
559 0 _l
453 0 _l
294 215 _l
135 0 _l
29 0 _l
241 286 _l
47 547 _l
153 547 _l
298 352 _l
443 547 _l
549 547 _l
_cl}_d
end readonly def

/BuildGlyph
 {exch begin
 CharStrings exch
 2 copy known not{pop /.notdef}if
 true 3 1 roll get exec
 end}_d

/BuildChar {
 1 index /Encoding get exch get
 1 index /BuildGlyph get exec
}_d

FontName currentdict end definefont pop
end
%%EndProlog
mpldict begin
-414 36 translate
1440 720 0 0 clipbox
gsave
0 0 m
1440 0 l
1440 720 l
0 720 l
cl
1.000 setgray
fill
grestore
gsave
180 90 m
1296 90 l
1296 633.6 l
180 633.6 l
cl
1.000 setgray
fill
grestore
0.800 setlinewidth
1 setlinejoin
0 setlinecap
[] 0 setdash
0.000 setgray
gsave
/o {
gsave
newpath
translate
0.8 setlinewidth
1 setlinejoin
0 setlinecap
0 0 m
0 -3.5 l

gsave
0.000 setgray
fill
grestore
stroke
grestore
} bind def
230.727 90 o
grestore
/DejaVuSans findfont
22.000 scalefont
setfont
gsave
223.727273 66.281250 translate
0.000000 rotate
0.000000 0.000000 m /zero glyphshow
grestore
gsave
/o {
gsave
newpath
translate
0.8 setlinewidth
1 setlinejoin
0 setlinecap
0 0 m
0 -3.5 l

gsave
0.000 setgray
fill
grestore
stroke
grestore
} bind def
434.043 90 o
grestore
gsave
413.042995 66.281250 translate
0.000000 rotate
0.000000 0.000000 m /one glyphshow
13.997070 0.000000 m /zero glyphshow
27.994141 0.000000 m /zero glyphshow
grestore
gsave
/o {
gsave
newpath
translate
0.8 setlinewidth
1 setlinejoin
0 setlinecap
0 0 m
0 -3.5 l

gsave
0.000 setgray
fill
grestore
stroke
grestore
} bind def
637.359 90 o
grestore
gsave
616.358717 66.281250 translate
0.000000 rotate
0.000000 0.000000 m /two glyphshow
13.997070 0.000000 m /zero glyphshow
27.994141 0.000000 m /zero glyphshow
grestore
gsave
/o {
gsave
newpath
translate
0.8 setlinewidth
1 setlinejoin
0 setlinecap
0 0 m
0 -3.5 l

gsave
0.000 setgray
fill
grestore
stroke
grestore
} bind def
840.674 90 o
grestore
gsave
819.674440 66.281250 translate
0.000000 rotate
0.000000 0.000000 m /three glyphshow
13.997070 0.000000 m /zero glyphshow
27.994141 0.000000 m /zero glyphshow
grestore
gsave
/o {
gsave
newpath
translate
0.8 setlinewidth
1 setlinejoin
0 setlinecap
0 0 m
0 -3.5 l

gsave
0.000 setgray
fill
grestore
stroke
grestore
} bind def
1043.99 90 o
grestore
gsave
1022.990162 66.281250 translate
0.000000 rotate
0.000000 0.000000 m /four glyphshow
13.997070 0.000000 m /zero glyphshow
27.994141 0.000000 m /zero glyphshow
grestore
gsave
/o {
gsave
newpath
translate
0.8 setlinewidth
1 setlinejoin
0 setlinecap
0 0 m
0 -3.5 l

gsave
0.000 setgray
fill
grestore
stroke
grestore
} bind def
1247.31 90 o
grestore
gsave
1226.305884 66.281250 translate
0.000000 rotate
0.000000 0.000000 m /five glyphshow
13.997070 0.000000 m /zero glyphshow
27.994141 0.000000 m /zero glyphshow
grestore
gsave
662.968750 40.984375 translate
0.000000 rotate
0.000000 0.000000 m /S glyphshow
13.964844 0.000000 m /a glyphshow
27.446289 0.000000 m /m glyphshow
48.876953 0.000000 m /p glyphshow
62.841797 0.000000 m /l glyphshow
68.954102 0.000000 m /e glyphshow
82.489258 0.000000 m /space glyphshow
89.482422 0.000000 m /i glyphshow
95.594727 0.000000 m /n glyphshow
109.538086 0.000000 m /d glyphshow
123.502930 0.000000 m /e glyphshow
137.038086 0.000000 m /x glyphshow
grestore
gsave
/o {
gsave
newpath
translate
0.8 setlinewidth
1 setlinejoin
0 setlinecap
0 0 m
-3.5 0 l

gsave
0.000 setgray
fill
grestore
stroke
grestore
} bind def
180 165.767 o
grestore
gsave
145.000000 157.407715 translate
0.000000 rotate
0.000000 0.000000 m /one glyphshow
13.997070 0.000000 m /eight glyphshow
grestore
gsave
/o {
gsave
newpath
translate
0.8 setlinewidth
1 setlinejoin
0 setlinecap
0 0 m
-3.5 0 l

gsave
0.000 setgray
fill
grestore
stroke
grestore
} bind def
180 243.72 o
grestore
gsave
145.000000 235.360418 translate
0.000000 rotate
0.000000 0.000000 m /two glyphshow
13.997070 0.000000 m /zero glyphshow
grestore
gsave
/o {
gsave
newpath
translate
0.8 setlinewidth
1 setlinejoin
0 setlinecap
0 0 m
-3.5 0 l

gsave
0.000 setgray
fill
grestore
stroke
grestore
} bind def
180 321.672 o
grestore
gsave
145.000000 313.313120 translate
0.000000 rotate
0.000000 0.000000 m /two glyphshow
13.997070 0.000000 m /two glyphshow
grestore
gsave
/o {
gsave
newpath
translate
0.8 setlinewidth
1 setlinejoin
0 setlinecap
0 0 m
-3.5 0 l

gsave
0.000 setgray
fill
grestore
stroke
grestore
} bind def
180 399.625 o
grestore
gsave
145.000000 391.265822 translate
0.000000 rotate
0.000000 0.000000 m /two glyphshow
13.997070 0.000000 m /four glyphshow
grestore
gsave
/o {
gsave
newpath
translate
0.8 setlinewidth
1 setlinejoin
0 setlinecap
0 0 m
-3.5 0 l

gsave
0.000 setgray
fill
grestore
stroke
grestore
} bind def
180 477.578 o
grestore
gsave
145.000000 469.218525 translate
0.000000 rotate
0.000000 0.000000 m /two glyphshow
13.997070 0.000000 m /six glyphshow
grestore
gsave
/o {
gsave
newpath
translate
0.8 setlinewidth
1 setlinejoin
0 setlinecap
0 0 m
-3.5 0 l

gsave
0.000 setgray
fill
grestore
stroke
grestore
} bind def
180 555.531 o
grestore
gsave
145.000000 547.171227 translate
0.000000 rotate
0.000000 0.000000 m /two glyphshow
13.997070 0.000000 m /eight glyphshow
grestore
gsave
/o {
gsave
newpath
translate
0.8 setlinewidth
1 setlinejoin
0 setlinecap
0 0 m
-3.5 0 l

gsave
0.000 setgray
fill
grestore
stroke
grestore
} bind def
180 633.483 o
grestore
gsave
145.000000 625.123930 translate
0.000000 rotate
0.000000 0.000000 m /three glyphshow
13.997070 0.000000 m /zero glyphshow
grestore
gsave
136.421875 287.010938 translate
90.000000 rotate
0.000000 0.000000 m /S glyphshow
13.964844 0.000000 m /a glyphshow
27.446289 0.000000 m /m glyphshow
48.876953 0.000000 m /p glyphshow
62.841797 0.000000 m /l glyphshow
68.954102 0.000000 m /e glyphshow
82.489258 0.000000 m /space glyphshow
89.482422 0.000000 m /v glyphshow
102.501953 0.000000 m /a glyphshow
115.983398 0.000000 m /l glyphshow
122.095703 0.000000 m /u glyphshow
136.039062 0.000000 m /e glyphshow
grestore
1.500 setlinewidth
2 setlinecap
0.122 0.467 0.706 setrgbcolor
gsave
1116 543.6 180 90 clipbox
230.727273 423.630555 m
232.76043 343.501744 l
234.793587 385.516207 l
236.826744 543.256508 l
238.859902 381.895478 l
240.893059 364.866692 l
242.926216 546.399628 l
244.959373 443.476536 l
246.992531 362.885088 l
249.025688 379.954793 l
251.058845 400.813207 l
253.092002 540.308063 l
255.125159 204.717526 l
257.158317 467.353523 l
259.191474 478.542847 l
261.224631 461.789459 l
263.257788 448.395285 l
265.290946 556.25765 l
267.324103 307.939245 l
269.35726 387.951226 l
271.390417 347.683331 l
273.423574 390.789656 l
275.456732 266.922056 l
277.489889 398.450785 l
279.523046 463.984851 l
281.556203 240.296935 l
283.589361 468.216994 l
285.622518 221.848823 l
287.655675 389.58516 l
289.688832 340.147705 l
291.721989 297.32843 l
293.755147 351.189126 l
295.788304 440.969824 l
297.821461 282.660663 l
299.854618 509.531784 l
301.887776 402.223715 l
303.920933 211.152024 l
305.95409 381.360834 l
307.987247 396.205554 l
310.020404 299.015414 l
312.053562 236.627764 l
314.086719 397.039762 l
316.119876 517.037641 l
318.153033 356.978918 l
320.186191 482.578573 l
322.219348 306.062437 l
324.252505 269.981533 l
326.285662 316.933711 l
328.318819 540.299287 l
330.351977 311.932553 l
332.385134 278.180156 l
334.418291 368.137672 l
336.451448 340.121389 l
338.484606 334.713204 l
340.517763 327.564511 l
342.55092 435.446185 l
344.584077 260.684264 l
346.617234 456.509441 l
348.650392 364.641303 l
350.683549 422.076986 l
352.716706 521.329329 l
354.749863 367.4831 l
356.783021 434.724935 l
358.816178 438.975301 l
360.849335 471.127082 l
362.882492 497.000158 l
364.915649 490.778301 l
366.948807 305.820238 l
371.015121 483.776788 l
373.048278 299.27782 l
375.081436 503.961089 l
377.114593 481.696747 l
379.14775 529.324908 l
381.180907 364.263136 l
383.214064 584.863681 l
385.247222 423.180341 l
387.280379 369.926858 l
389.313536 396.545433 l
391.346693 568.485016 l
393.379851 366.216827 l
395.413008 390.315156 l
397.446165 461.895913 l
399.479322 466.997803 l
401.51248 471.463921 l
403.545637 372.073728 l
405.578794 327.080642 l
407.611951 396.551637 l
409.645108 422.636377 l
411.678266 360.408019 l
413.711423 500.049115 l
415.74458 369.333358 l
417.777737 441.334521 l
419.810895 441.086198 l
421.844052 427.32686 l
423.877209 402.708469 l
425.910366 514.348657 l
427.943523 302.147381 l
429.976681 399.25465 l
432.009838 409.873748 l
434.042995 367.181926 l
436.076152 425.768654 l
438.10931 409.250874 l
440.142467 512.872351 l
442.175624 459.906237 l
444.208781 441.078297 l
446.241938 344.810001 l
448.275096 490.154798 l
452.34141 294.086037 l
454.374567 116.774617 l
456.407725 424.709598 l
458.440882 375.495218 l
460.474039 281.757134 l
462.507196 396.607333 l
464.540353 308.509753 l
466.573511 368.944049 l
468.606668 473.02168 l
470.639825 471.587268 l
472.672982 382.057897 l
474.70614 521.094645 l
476.739297 375.611866 l
478.772454 499.590717 l
480.805611 359.08201 l
482.838768 440.063769 l
484.871926 306.536538 l
486.905083 241.458437 l
488.93824 390.218042 l
490.971397 502.77848 l
493.004555 381.798694 l
495.037712 457.244358 l
497.070869 282.922647 l
499.104026 568.16264 l
501.137183 331.380309 l
503.170341 371.717329 l
505.203498 488.934319 l
507.236655 468.417081 l
509.269812 327.445404 l
511.30297 225.594671 l
513.336127 413.838837 l
517.402441 267.798069 l
519.435598 373.208829 l
521.468756 311.913534 l
523.501913 301.006946 l
525.53507 172.263388 l
527.568227 347.901749 l
529.601385 361.796649 l
531.634542 412.24442 l
533.667699 336.230698 l
535.700856 327.238376 l
537.734013 369.95639 l
539.767171 361.536397 l
541.800328 401.544034 l
543.833485 306.497636 l
545.866642 263.372888 l
547.8998 251.504622 l
549.932957 353.354637 l
551.966114 417.119459 l
553.999271 432.693217 l
556.032428 306.475338 l
558.065586 326.112941 l
560.098743 399.640524 l
562.1319 189.377334 l
564.165057 364.795168 l
566.198215 379.926671 l
568.231372 244.839407 l
570.264529 282.957928 l
572.297686 182.033119 l
574.330844 209.23505 l
576.364001 286.278708 l
578.397158 221.80748 l
580.430315 364.950396 l
582.463472 311.710103 l
584.49663 312.862298 l
586.529787 289.11238 l
588.562944 242.612951 l
590.596101 126.634372 l
592.629259 189.215453 l
594.662416 220.664597 l
596.695573 380.339793 l
598.72873 114.709091 l
600.761887 319.473119 l
602.795045 385.014239 l
604.828202 239.854533 l
606.861359 155.549975 l
608.894516 234.571442 l
610.927674 283.531631 l
612.960831 138.408265 l
614.993988 247.907166 l
617.027145 291.327756 l
619.060302 340.47065 l
621.09346 203.877326 l
623.126617 465.827961 l
625.159774 396.552636 l
627.192931 436.793361 l
629.226089 385.293514 l
631.259246 381.312584 l
633.292403 404.836606 l
635.32556 467.237837 l
637.358717 285.237216 l
639.391875 317.316382 l
641.425032 361.114625 l
643.458189 417.752716 l
645.491346 264.930337 l
647.524504 340.015598 l
649.557661 465.55573 l
651.590818 296.325735 l
653.623975 337.017927 l
655.657132 471.322358 l
657.69029 336.58355 l
659.723447 290.427589 l
661.756604 379.658187 l
663.789761 430.870171 l
665.822919 419.474312 l
667.856076 476.411169 l
669.889233 476.214847 l
671.92239 337.600539 l
673.955547 366.184692 l
675.988705 420.685302 l
678.021862 306.704725 l
680.055019 507.470049 l
682.088176 274.941231 l
684.121334 420.506672 l
686.154491 341.933772 l
688.187648 317.410307 l
690.220805 257.752526 l
692.253962 442.592247 l
694.28712 444.278369 l
696.320277 348.546557 l
698.353434 475.723777 l
700.386591 353.289635 l
702.419749 294.967503 l
704.452906 396.451993 l
706.486063 284.84046 l
708.51922 284.167555 l
710.552377 347.680607 l
712.585535 348.809219 l
714.618692 386.253352 l
716.651849 291.074816 l
718.685006 211.604528 l
720.718164 173.999694 l
722.751321 153.240072 l
724.784478 440.018943 l
726.817635 344.710431 l
728.850792 265.7241 l
730.88395 206.275274 l
732.917107 407.737192 l
734.950264 311.271313 l
736.983421 332.255627 l
739.016579 396.268896 l
741.049736 291.693507 l
743.082893 319.951728 l
745.11605 400.197532 l
747.149208 366.897147 l
749.182365 487.7149 l
751.215522 338.896296 l
753.248679 355.624214 l
755.281836 259.900059 l
757.314994 398.492743 l
759.348151 370.233306 l
761.381308 245.182006 l
763.414465 358.610286 l
765.447623 376.10554 l
767.48078 242.607375 l
769.513937 346.388937 l
771.547094 411.602756 l
773.580251 294.387889 l
775.613409 292.347509 l
777.646566 298.003439 l
781.71288 494.416392 l
783.746038 417.277195 l
785.779195 260.825902 l
787.812352 496.388456 l
789.845509 460.165794 l
791.878666 436.946308 l
793.911824 433.843806 l
795.944981 354.678559 l
797.978138 422.911865 l
800.011295 364.519247 l
802.044453 465.334394 l
804.07761 414.023006 l
806.110767 477.818295 l
808.143924 322.96269 l
810.177081 482.326591 l
812.210239 414.222102 l
814.243396 467.325872 l
816.276553 416.180922 l
818.30971 290.730584 l
820.342868 376.518068 l
822.376025 492.698572 l
824.409182 412.177849 l
826.442339 467.702574 l
828.475496 248.539011 l
830.508654 479.807182 l
832.541811 318.41463 l
834.574968 430.290086 l
836.608125 354.867069 l
838.641283 381.840947 l
840.67444 403.635866 l
842.707597 323.236793 l
844.740754 475.337306 l
846.773911 444.490821 l
848.807069 468.639388 l
850.840226 435.100997 l
852.873383 320.959515 l
854.90654 355.137764 l
856.939698 518.476171 l
858.972855 244.974558 l
861.006012 407.324128 l
863.039169 293.942729 l
865.072326 482.24251 l
867.105484 413.837928 l
869.138641 497.057016 l
871.171798 414.423022 l
873.204955 311.118088 l
875.238113 389.628994 l
877.27127 295.981339 l
879.304427 455.942589 l
881.337584 370.063802 l
883.370741 232.528711 l
885.403899 167.184383 l
887.437056 167.159722 l
889.470213 358.62978 l
891.50337 236.957212 l
893.536528 191.820759 l
895.569685 393.683838 l
897.602842 305.871613 l
899.635999 289.482698 l
901.669156 461.7962 l
903.702314 267.089138 l
905.735471 258.350938 l
907.768628 353.781023 l
909.801785 344.912522 l
911.834943 335.479001 l
913.8681 402.191233 l
915.901257 376.859201 l
917.934414 402.154047 l
919.967572 335.9465 l
922.000729 293.55273 l
924.033886 424.349183 l
926.067043 348.555663 l
928.1002 292.273391 l
930.133358 404.1083 l
932.166515 438.844378 l
934.199672 429.274311 l
936.232829 462.483143 l
938.265987 305.77474 l
940.299144 527.276373 l
942.332301 505.028774 l
944.365458 288.461145 l
946.398615 436.048777 l
948.431773 388.861355 l
950.46493 513.101007 l
952.498087 391.761244 l
954.531244 364.281569 l
956.564402 283.866905 l
958.597559 464.790164 l
960.630716 424.190267 l
962.663873 369.640107 l
964.69703 357.856255 l
966.730188 414.875294 l
968.763345 380.234324 l
970.796502 265.357142 l
972.829659 306.765384 l
974.862817 453.941693 l
976.895974 445.893854 l
978.929131 466.341648 l
980.962288 456.412067 l
982.995445 456.320651 l
987.06176 608.890909 l
989.094917 408.04787 l
991.128074 463.056842 l
993.161232 446.223321 l
995.194389 425.504103 l
997.227546 279.344353 l
999.260703 464.628082 l
1001.29386 481.520925 l
1003.327018 339.176385 l
1005.360175 350.919258 l
1007.393332 412.811685 l
1009.426489 433.743402 l
1011.459647 397.895206 l
1013.492804 304.186927 l
1015.525961 456.140522 l
1017.559118 367.164709 l
1019.592275 342.613827 l
1021.625433 320.571967 l
1023.65859 361.09921 l
1025.691747 320.054182 l
1027.724904 287.790911 l
1029.758062 364.307332 l
1031.791219 315.893801 l
1033.824376 436.357264 l
1035.857533 389.130062 l
1037.89069 258.307984 l
1039.923848 275.393956 l
1041.957005 341.387168 l
1043.990162 283.948258 l
1046.023319 295.448342 l
1048.056477 355.331334 l
1050.089634 255.892603 l
1052.122791 452.281385 l
1054.155948 351.653496 l
1056.189105 395.625282 l
1058.222263 487.937724 l
1060.25542 360.457836 l
1064.321734 428.05829 l
1066.354892 507.284046 l
1068.388049 444.579221 l
1070.421206 491.722734 l
1072.454363 413.672474 l
1074.48752 218.649411 l
1076.520678 469.703793 l
1078.553835 415.533771 l
1080.586992 416.678521 l
1082.620149 341.935543 l
1084.653307 350.660632 l
1086.686464 408.922068 l
1088.719621 204.797375 l
1090.752778 379.515715 l
1092.785936 304.553951 l
1094.819093 451.98825 l
1096.85225 352.550332 l
1098.885407 289.159399 l
1100.918564 407.775994 l
1102.951722 519.350376 l
1104.984879 440.734578 l
1107.018036 426.212041 l
1109.051193 422.389129 l
1111.084351 396.393993 l
1113.117508 303.813679 l
1115.150665 485.084026 l
1117.183822 242.697279 l
1119.216979 335.270253 l
1121.250137 263.650527 l
1123.283294 172.99116 l
1125.316451 348.4679 l
1127.349608 291.235454 l
1129.382766 462.511722 l
1131.415923 402.340416 l
1133.44908 468.462709 l
1135.482237 232.464204 l
1137.515394 266.524395 l
1139.548552 365.091848 l
1141.581709 418.03958 l
1143.614866 429.485129 l
1145.648023 315.145169 l
1149.714338 431.937362 l
1153.780652 213.34382 l
1155.813809 281.562542 l
1157.846967 387.095582 l
1159.880124 372.927179 l
1161.913281 229.29344 l
1163.946438 430.096866 l
1165.979596 500.232327 l
1168.012753 288.488129 l
1170.04591 471.709986 l
1172.079067 426.403145 l
1174.112224 403.074393 l
1176.145382 417.293769 l
1178.178539 422.240612 l
1180.211696 265.593742 l
1182.244853 314.720187 l
1184.278011 456.40456 l
1186.311168 411.388063 l
1188.344325 377.372109 l
1190.377482 485.818122 l
1192.410639 301.370124 l
1194.443797 329.163838 l
1196.476954 565.90383 l
1198.510111 405.374971 l
1200.543268 294.088126 l
1202.576426 409.359279 l
1204.609583 440.301873 l
1206.64274 524.679009 l
1208.675897 572.517635 l
1210.709054 513.534697 l
1212.742212 391.031161 l
1214.775369 488.776913 l
1216.808526 606.899634 l
1218.841683 443.197357 l
1220.874841 441.280955 l
1222.907998 349.240649 l
1224.941155 427.386956 l
1226.974312 359.318069 l
1229.007469 332.110281 l
1231.040627 358.11148 l
1233.073784 505.170274 l
1235.106941 381.566742 l
1237.140098 339.130463 l
1239.173256 155.265371 l
1241.206413 442.64961 l
1243.23957 308.436915 l
1245.272727 429.291198 l
1245.272727 429.291198 l
stroke
grestore
0.800 setlinewidth
0 setlinejoin
[] 0 setdash
0.000 setgray
gsave
180 90 m
180 633.6 l
stroke
grestore
gsave
1296 90 m
1296 633.6 l
stroke
grestore
gsave
180 90 m
1296 90 l
stroke
grestore
gsave
180 633.6 m
1296 633.6 l
stroke
grestore

end
showpage
