%!PS-Adobe-3.0 EPSF-3.0
%%Title: gibbs_n_samples.eps
%%Creator: matplotlib version 3.1.1, http://matplotlib.org/
%%CreationDate: Sat Oct  5 13:40:46 2019
%%Orientation: portrait
%%BoundingBox: -414.0 36.0 1026.0 756.0
%%EndComments
%%BeginProlog
/mpldict 8 dict def
mpldict begin
/m { moveto } bind def
/l { lineto } bind def
/r { rlineto } bind def
/c { curveto } bind def
/cl { closepath } bind def
/box {
m
1 index 0 r
0 exch r
neg 0 r
cl
} bind def
/clipbox {
box
clip
newpath
} bind def
%!PS-Adobe-3.0 Resource-Font
%%Title: DejaVu Sans
%%Copyright: Copyright (c) 2003 by Bitstream, Inc. All Rights Reserved. Copyright (c) 2006 by Tavmjong Bah. All Rights Reserved. DejaVu changes are in public domain 
%%Creator: Converted from TrueType to type 3 by PPR
25 dict begin
/_d{bind def}bind def
/_m{moveto}_d
/_l{lineto}_d
/_cl{closepath eofill}_d
/_c{curveto}_d
/_sc{7 -1 roll{setcachedevice}{pop pop pop pop pop pop}ifelse}_d
/_e{exec}_d
/FontName /DejaVuSans def
/PaintType 0 def
/FontMatrix[.001 0 0 .001 0 0]def
/FontBBox[-1021 -463 1793 1232]def
/FontType 3 def
/Encoding [ /space /parenleft /parenright /period /zero /one /two /three /four /five /six /nine /equal /underscore /a /e /l /m /n /p /s ] def
/FontInfo 10 dict dup begin
/FamilyName (DejaVu Sans) def
/FullName (DejaVu Sans) def
/Notice (Copyright (c) 2003 by Bitstream, Inc. All Rights Reserved. Copyright (c) 2006 by Tavmjong Bah. All Rights Reserved. DejaVu changes are in public domain ) def
/Weight (Book) def
/Version (Version 2.35) def
/ItalicAngle 0.0 def
/isFixedPitch false def
/UnderlinePosition -130 def
/UnderlineThickness 90 def
end readonly def
/CharStrings 22 dict dup begin
/.notdef 0 def
/space{318 0 0 0 0 0 _sc
}_d
/parenleft{390 0 86 -131 310 759 _sc
310 759 _m
266 683 234 609 213 536 _c
191 463 181 389 181 314 _c
181 238 191 164 213 91 _c
234 17 266 -56 310 -131 _c
232 -131 _l
183 -54 146 20 122 94 _c
98 168 86 241 86 314 _c
86 386 98 459 122 533 _c
146 607 182 682 232 759 _c
310 759 _l
_cl}_d
/parenright{390 0 80 -131 304 759 _sc
80 759 _m
158 759 _l
206 682 243 607 267 533 _c
291 459 304 386 304 314 _c
304 241 291 168 267 94 _c
243 20 206 -54 158 -131 _c
80 -131 _l
123 -56 155 17 177 91 _c
198 164 209 238 209 314 _c
209 389 198 463 177 536 _c
155 609 123 683 80 759 _c
_cl}_d
/period{318 0 107 0 210 124 _sc
107 124 _m
210 124 _l
210 0 _l
107 0 _l
107 124 _l
_cl}_d
/zero{636 0 66 -13 570 742 _sc
318 664 _m
267 664 229 639 203 589 _c
177 539 165 464 165 364 _c
165 264 177 189 203 139 _c
229 89 267 64 318 64 _c
369 64 407 89 433 139 _c
458 189 471 264 471 364 _c
471 464 458 539 433 589 _c
407 639 369 664 318 664 _c
318 742 _m
399 742 461 709 505 645 _c
548 580 570 486 570 364 _c
570 241 548 147 505 83 _c
461 19 399 -13 318 -13 _c
236 -13 173 19 130 83 _c
87 147 66 241 66 364 _c
66 486 87 580 130 645 _c
173 709 236 742 318 742 _c
_cl}_d
/one{636 0 110 0 544 729 _sc
124 83 _m
285 83 _l
285 639 _l
110 604 _l
110 694 _l
284 729 _l
383 729 _l
383 83 _l
544 83 _l
544 0 _l
124 0 _l
124 83 _l
_cl}_d
/two{{636 0 73 0 536 742 _sc
192 83 _m
536 83 _l
536 0 _l
73 0 _l
73 83 _l
110 121 161 173 226 239 _c
290 304 331 346 348 365 _c
380 400 402 430 414 455 _c
426 479 433 504 433 528 _c
433 566 419 598 392 622 _c
365 646 330 659 286 659 _c
255 659 222 653 188 643 _c
154 632 117 616 78 594 _c
78 694 _l
118 710 155 722 189 730 _c
223 738 255 742 284 742 _c
}_e{359 742 419 723 464 685 _c
509 647 532 597 532 534 _c
532 504 526 475 515 449 _c
504 422 484 390 454 354 _c
446 344 420 317 376 272 _c
332 227 271 164 192 83 _c
_cl}_e}_d
/three{{636 0 76 -13 556 742 _sc
406 393 _m
453 383 490 362 516 330 _c
542 298 556 258 556 212 _c
556 140 531 84 482 45 _c
432 6 362 -13 271 -13 _c
240 -13 208 -10 176 -4 _c
144 1 110 10 76 22 _c
76 117 _l
103 101 133 89 166 81 _c
198 73 232 69 268 69 _c
330 69 377 81 409 105 _c
441 129 458 165 458 212 _c
458 254 443 288 413 312 _c
383 336 341 349 287 349 _c
}_e{202 349 _l
202 430 _l
291 430 _l
339 430 376 439 402 459 _c
428 478 441 506 441 543 _c
441 580 427 609 401 629 _c
374 649 336 659 287 659 _c
260 659 231 656 200 650 _c
169 644 135 635 98 623 _c
98 711 _l
135 721 170 729 203 734 _c
235 739 266 742 296 742 _c
370 742 429 725 473 691 _c
517 657 539 611 539 553 _c
539 513 527 479 504 451 _c
481 423 448 403 406 393 _c
_cl}_e}_d
/four{636 0 49 0 580 729 _sc
378 643 _m
129 254 _l
378 254 _l
378 643 _l
352 729 _m
476 729 _l
476 254 _l
580 254 _l
580 172 _l
476 172 _l
476 0 _l
378 0 _l
378 172 _l
49 172 _l
49 267 _l
352 729 _l
_cl}_d
/five{{636 0 77 -13 549 729 _sc
108 729 _m
495 729 _l
495 646 _l
198 646 _l
198 467 _l
212 472 227 476 241 478 _c
255 480 270 482 284 482 _c
365 482 429 459 477 415 _c
525 370 549 310 549 234 _c
549 155 524 94 475 51 _c
426 8 357 -13 269 -13 _c
238 -13 207 -10 175 -6 _c
143 -1 111 6 77 17 _c
77 116 _l
106 100 136 88 168 80 _c
199 72 232 69 267 69 _c
}_e{323 69 368 83 401 113 _c
433 143 450 183 450 234 _c
450 284 433 324 401 354 _c
368 384 323 399 267 399 _c
241 399 214 396 188 390 _c
162 384 135 375 108 363 _c
108 729 _l
_cl}_e}_d
/six{{636 0 70 -13 573 742 _sc
330 404 _m
286 404 251 388 225 358 _c
199 328 186 286 186 234 _c
186 181 199 139 225 109 _c
251 79 286 64 330 64 _c
374 64 409 79 435 109 _c
461 139 474 181 474 234 _c
474 286 461 328 435 358 _c
409 388 374 404 330 404 _c
526 713 _m
526 623 _l
501 635 476 644 451 650 _c
425 656 400 659 376 659 _c
310 659 260 637 226 593 _c
}_e{192 549 172 482 168 394 _c
187 422 211 444 240 459 _c
269 474 301 482 336 482 _c
409 482 467 459 509 415 _c
551 371 573 310 573 234 _c
573 159 550 99 506 54 _c
462 9 403 -13 330 -13 _c
246 -13 181 19 137 83 _c
92 147 70 241 70 364 _c
70 479 97 571 152 639 _c
206 707 280 742 372 742 _c
396 742 421 739 447 735 _c
472 730 498 723 526 713 _c
_cl}_e}_d
/nine{{636 0 63 -13 566 742 _sc
110 15 _m
110 105 _l
134 93 159 84 185 78 _c
210 72 235 69 260 69 _c
324 69 374 90 408 134 _c
442 178 462 244 468 334 _c
448 306 424 284 396 269 _c
367 254 335 247 300 247 _c
226 247 168 269 126 313 _c
84 357 63 417 63 494 _c
63 568 85 628 129 674 _c
173 719 232 742 306 742 _c
390 742 455 709 499 645 _c
543 580 566 486 566 364 _c
}_e{566 248 538 157 484 89 _c
429 21 356 -13 264 -13 _c
239 -13 214 -10 189 -6 _c
163 -2 137 5 110 15 _c
306 324 _m
350 324 385 339 411 369 _c
437 399 450 441 450 494 _c
450 546 437 588 411 618 _c
385 648 350 664 306 664 _c
262 664 227 648 201 618 _c
175 588 162 546 162 494 _c
162 441 175 399 201 369 _c
227 339 262 324 306 324 _c
_cl}_e}_d
/equal{838 0 106 172 732 454 _sc
106 454 _m
732 454 _l
732 372 _l
106 372 _l
106 454 _l
106 255 _m
732 255 _l
732 172 _l
106 172 _l
106 255 _l
_cl}_d
/underscore{500 0 -9 -235 510 -165 _sc
510 -165 _m
510 -235 _l
-9 -235 _l
-9 -165 _l
510 -165 _l
_cl}_d
/a{{613 0 60 -13 522 560 _sc
343 275 _m
270 275 220 266 192 250 _c
164 233 150 205 150 165 _c
150 133 160 107 181 89 _c
202 70 231 61 267 61 _c
317 61 357 78 387 114 _c
417 149 432 196 432 255 _c
432 275 _l
343 275 _l
522 312 _m
522 0 _l
432 0 _l
432 83 _l
411 49 385 25 355 10 _c
325 -5 287 -13 243 -13 _c
187 -13 142 2 109 33 _c
76 64 60 106 60 159 _c
}_e{60 220 80 266 122 298 _c
163 329 224 345 306 345 _c
432 345 _l
432 354 _l
432 395 418 427 391 450 _c
364 472 326 484 277 484 _c
245 484 215 480 185 472 _c
155 464 127 453 100 439 _c
100 522 _l
132 534 164 544 195 550 _c
226 556 256 560 286 560 _c
365 560 424 539 463 498 _c
502 457 522 395 522 312 _c
_cl}_e}_d
/e{{615 0 55 -13 562 560 _sc
562 296 _m
562 252 _l
149 252 _l
153 190 171 142 205 110 _c
238 78 284 62 344 62 _c
378 62 412 66 444 74 _c
476 82 509 95 541 113 _c
541 28 _l
509 14 476 3 442 -3 _c
408 -9 373 -13 339 -13 _c
251 -13 182 12 131 62 _c
80 112 55 181 55 268 _c
55 357 79 428 127 481 _c
175 533 241 560 323 560 _c
397 560 455 536 498 489 _c
}_e{540 441 562 377 562 296 _c
472 322 _m
471 371 457 410 431 440 _c
404 469 368 484 324 484 _c
274 484 234 469 204 441 _c
174 413 156 373 152 322 _c
472 322 _l
_cl}_e}_d
/l{278 0 94 0 184 760 _sc
94 760 _m
184 760 _l
184 0 _l
94 0 _l
94 760 _l
_cl}_d
/m{{974 0 91 0 889 560 _sc
520 442 _m
542 482 569 511 600 531 _c
631 550 668 560 711 560 _c
767 560 811 540 842 500 _c
873 460 889 403 889 330 _c
889 0 _l
799 0 _l
799 327 _l
799 379 789 418 771 444 _c
752 469 724 482 686 482 _c
639 482 602 466 575 435 _c
548 404 535 362 535 309 _c
535 0 _l
445 0 _l
445 327 _l
445 379 435 418 417 444 _c
398 469 369 482 331 482 _c
}_e{285 482 248 466 221 435 _c
194 404 181 362 181 309 _c
181 0 _l
91 0 _l
91 547 _l
181 547 _l
181 462 _l
201 495 226 520 255 536 _c
283 552 317 560 357 560 _c
397 560 430 550 458 530 _c
486 510 506 480 520 442 _c
_cl}_e}_d
/n{634 0 91 0 549 560 _sc
549 330 _m
549 0 _l
459 0 _l
459 327 _l
459 379 448 417 428 443 _c
408 469 378 482 338 482 _c
289 482 251 466 223 435 _c
195 404 181 362 181 309 _c
181 0 _l
91 0 _l
91 547 _l
181 547 _l
181 462 _l
202 494 227 519 257 535 _c
286 551 320 560 358 560 _c
420 560 468 540 500 501 _c
532 462 549 405 549 330 _c
_cl}_d
/p{{635 0 91 -207 580 560 _sc
181 82 _m
181 -207 _l
91 -207 _l
91 547 _l
181 547 _l
181 464 _l
199 496 223 520 252 536 _c
281 552 316 560 356 560 _c
422 560 476 533 518 481 _c
559 428 580 359 580 273 _c
580 187 559 117 518 65 _c
476 13 422 -13 356 -13 _c
316 -13 281 -5 252 10 _c
223 25 199 49 181 82 _c
487 273 _m
487 339 473 390 446 428 _c
418 466 381 485 334 485 _c
}_e{286 485 249 466 222 428 _c
194 390 181 339 181 273 _c
181 207 194 155 222 117 _c
249 79 286 61 334 61 _c
381 61 418 79 446 117 _c
473 155 487 207 487 273 _c
_cl}_e}_d
/s{{521 0 54 -13 472 560 _sc
443 531 _m
443 446 _l
417 458 391 468 364 475 _c
336 481 308 485 279 485 _c
234 485 200 478 178 464 _c
156 450 145 430 145 403 _c
145 382 153 366 169 354 _c
185 342 217 330 265 320 _c
296 313 _l
360 299 405 279 432 255 _c
458 230 472 195 472 151 _c
472 100 452 60 412 31 _c
372 1 316 -13 246 -13 _c
216 -13 186 -10 154 -5 _c
}_e{122 0 89 8 54 20 _c
54 113 _l
87 95 120 82 152 74 _c
184 65 216 61 248 61 _c
290 61 323 68 346 82 _c
368 96 380 117 380 144 _c
380 168 371 187 355 200 _c
339 213 303 226 247 238 _c
216 245 _l
160 257 119 275 95 299 _c
70 323 58 356 58 399 _c
58 450 76 490 112 518 _c
148 546 200 560 268 560 _c
301 560 332 557 362 552 _c
391 547 418 540 443 531 _c
}_e{_cl}_e}_d
end readonly def

/BuildGlyph
 {exch begin
 CharStrings exch
 2 copy known not{pop /.notdef}if
 true 3 1 roll get exec
 end}_d

/BuildChar {
 1 index /Encoding get exch get
 1 index /BuildGlyph get exec
}_d

FontName currentdict end definefont pop
end
%%EndProlog
mpldict begin
-414 36 translate
1440 720 0 0 clipbox
gsave
0 0 m
1440 0 l
1440 720 l
0 720 l
cl
1.000 setgray
fill
grestore
gsave
180 386.509091 m
687.272727 386.509091 l
687.272727 633.6 l
180 633.6 l
cl
1.000 setgray
fill
grestore
gsave
507.3 247.1 180 386.5 clipbox
369.556569 386.509091 m
376.297134 386.509091 l
376.297134 420.126902 l
369.556569 420.126902 l
cl
0.122 0.467 0.706 setrgbcolor
fill
grestore
gsave
507.3 247.1 180 386.5 clipbox
376.297134 386.509091 m
383.037698 386.509091 l
383.037698 420.126902 l
376.297134 420.126902 l
cl
0.122 0.467 0.706 setrgbcolor
fill
grestore
gsave
507.3 247.1 180 386.5 clipbox
383.037698 386.509091 m
389.778263 386.509091 l
389.778263 386.509091 l
383.037698 386.509091 l
cl
0.122 0.467 0.706 setrgbcolor
fill
grestore
gsave
507.3 247.1 180 386.5 clipbox
389.778263 386.509091 m
396.518828 386.509091 l
396.518828 386.509091 l
389.778263 386.509091 l
cl
0.122 0.467 0.706 setrgbcolor
fill
grestore
gsave
507.3 247.1 180 386.5 clipbox
396.518828 386.509091 m
403.259392 386.509091 l
403.259392 386.509091 l
396.518828 386.509091 l
cl
0.122 0.467 0.706 setrgbcolor
fill
grestore
gsave
507.3 247.1 180 386.5 clipbox
403.259392 386.509091 m
409.999957 386.509091 l
409.999957 453.744712 l
403.259392 453.744712 l
cl
0.122 0.467 0.706 setrgbcolor
fill
grestore
gsave
507.3 247.1 180 386.5 clipbox
409.999957 386.509091 m
416.740521 386.509091 l
416.740521 520.980334 l
409.999957 520.980334 l
cl
0.122 0.467 0.706 setrgbcolor
fill
grestore
gsave
507.3 247.1 180 386.5 clipbox
416.740521 386.509091 m
423.481086 386.509091 l
423.481086 453.744712 l
416.740521 453.744712 l
cl
0.122 0.467 0.706 setrgbcolor
fill
grestore
gsave
507.3 247.1 180 386.5 clipbox
423.481086 386.509091 m
430.221651 386.509091 l
430.221651 420.126902 l
423.481086 420.126902 l
cl
0.122 0.467 0.706 setrgbcolor
fill
grestore
gsave
507.3 247.1 180 386.5 clipbox
430.221651 386.509091 m
436.962215 386.509091 l
436.962215 420.126902 l
430.221651 420.126902 l
cl
0.122 0.467 0.706 setrgbcolor
fill
grestore
gsave
507.3 247.1 180 386.5 clipbox
436.962215 386.509091 m
443.70278 386.509091 l
443.70278 386.509091 l
436.962215 386.509091 l
cl
0.122 0.467 0.706 setrgbcolor
fill
grestore
gsave
507.3 247.1 180 386.5 clipbox
443.70278 386.509091 m
450.443345 386.509091 l
450.443345 520.980334 l
443.70278 520.980334 l
cl
0.122 0.467 0.706 setrgbcolor
fill
grestore
gsave
507.3 247.1 180 386.5 clipbox
450.443345 386.509091 m
457.183909 386.509091 l
457.183909 621.833766 l
450.443345 621.833766 l
cl
0.122 0.467 0.706 setrgbcolor
fill
grestore
gsave
507.3 247.1 180 386.5 clipbox
457.183909 386.509091 m
463.924474 386.509091 l
463.924474 588.215955 l
457.183909 588.215955 l
cl
0.122 0.467 0.706 setrgbcolor
fill
grestore
gsave
507.3 247.1 180 386.5 clipbox
463.924474 386.509091 m
470.665039 386.509091 l
470.665039 453.744712 l
463.924474 453.744712 l
cl
0.122 0.467 0.706 setrgbcolor
fill
grestore
gsave
507.3 247.1 180 386.5 clipbox
470.665039 386.509091 m
477.405603 386.509091 l
477.405603 520.980334 l
470.665039 520.980334 l
cl
0.122 0.467 0.706 setrgbcolor
fill
grestore
gsave
507.3 247.1 180 386.5 clipbox
477.405603 386.509091 m
484.146168 386.509091 l
484.146168 386.509091 l
477.405603 386.509091 l
cl
0.122 0.467 0.706 setrgbcolor
fill
grestore
gsave
507.3 247.1 180 386.5 clipbox
484.146168 386.509091 m
490.886733 386.509091 l
490.886733 554.598145 l
484.146168 554.598145 l
cl
0.122 0.467 0.706 setrgbcolor
fill
grestore
gsave
507.3 247.1 180 386.5 clipbox
490.886733 386.509091 m
497.627297 386.509091 l
497.627297 621.833766 l
490.886733 621.833766 l
cl
0.122 0.467 0.706 setrgbcolor
fill
grestore
gsave
507.3 247.1 180 386.5 clipbox
497.627297 386.509091 m
504.367862 386.509091 l
504.367862 487.362523 l
497.627297 487.362523 l
cl
0.122 0.467 0.706 setrgbcolor
fill
grestore
gsave
507.3 247.1 180 386.5 clipbox
504.367862 386.509091 m
511.108426 386.509091 l
511.108426 487.362523 l
504.367862 487.362523 l
cl
0.122 0.467 0.706 setrgbcolor
fill
grestore
gsave
507.3 247.1 180 386.5 clipbox
511.108426 386.509091 m
517.848991 386.509091 l
517.848991 487.362523 l
511.108426 487.362523 l
cl
0.122 0.467 0.706 setrgbcolor
fill
grestore
gsave
507.3 247.1 180 386.5 clipbox
517.848991 386.509091 m
524.589556 386.509091 l
524.589556 487.362523 l
517.848991 487.362523 l
cl
0.122 0.467 0.706 setrgbcolor
fill
grestore
gsave
507.3 247.1 180 386.5 clipbox
524.589556 386.509091 m
531.33012 386.509091 l
531.33012 420.126902 l
524.589556 420.126902 l
cl
0.122 0.467 0.706 setrgbcolor
fill
grestore
gsave
507.3 247.1 180 386.5 clipbox
531.33012 386.509091 m
538.070685 386.509091 l
538.070685 520.980334 l
531.33012 520.980334 l
cl
0.122 0.467 0.706 setrgbcolor
fill
grestore
gsave
507.3 247.1 180 386.5 clipbox
305.545339 386.509091 m
311.457815 386.509091 l
311.457815 463.16158 l
305.545339 463.16158 l
cl
1.000 0.498 0.055 setrgbcolor
fill
grestore
gsave
507.3 247.1 180 386.5 clipbox
311.457815 386.509091 m
317.370292 386.509091 l
317.370292 386.509091 l
311.457815 386.509091 l
cl
1.000 0.498 0.055 setrgbcolor
fill
grestore
gsave
507.3 247.1 180 386.5 clipbox
317.370292 386.509091 m
323.282769 386.509091 l
323.282769 386.509091 l
317.370292 386.509091 l
cl
1.000 0.498 0.055 setrgbcolor
fill
grestore
gsave
507.3 247.1 180 386.5 clipbox
323.282769 386.509091 m
329.195245 386.509091 l
329.195245 424.835335 l
323.282769 424.835335 l
cl
1.000 0.498 0.055 setrgbcolor
fill
grestore
gsave
507.3 247.1 180 386.5 clipbox
329.195245 386.509091 m
335.107722 386.509091 l
335.107722 386.509091 l
329.195245 386.509091 l
cl
1.000 0.498 0.055 setrgbcolor
fill
grestore
gsave
507.3 247.1 180 386.5 clipbox
335.107722 386.509091 m
341.020199 386.509091 l
341.020199 463.16158 l
335.107722 463.16158 l
cl
1.000 0.498 0.055 setrgbcolor
fill
grestore
gsave
507.3 247.1 180 386.5 clipbox
341.020199 386.509091 m
346.932675 386.509091 l
346.932675 501.487825 l
341.020199 501.487825 l
cl
1.000 0.498 0.055 setrgbcolor
fill
grestore
gsave
507.3 247.1 180 386.5 clipbox
346.932675 386.509091 m
352.845152 386.509091 l
352.845152 501.487825 l
346.932675 501.487825 l
cl
1.000 0.498 0.055 setrgbcolor
fill
grestore
gsave
507.3 247.1 180 386.5 clipbox
352.845152 386.509091 m
358.757629 386.509091 l
358.757629 501.487825 l
352.845152 501.487825 l
cl
1.000 0.498 0.055 setrgbcolor
fill
grestore
gsave
507.3 247.1 180 386.5 clipbox
358.757629 386.509091 m
364.670105 386.509091 l
364.670105 501.487825 l
358.757629 501.487825 l
cl
1.000 0.498 0.055 setrgbcolor
fill
grestore
gsave
507.3 247.1 180 386.5 clipbox
364.670105 386.509091 m
370.582582 386.509091 l
370.582582 539.814069 l
364.670105 539.814069 l
cl
1.000 0.498 0.055 setrgbcolor
fill
grestore
gsave
507.3 247.1 180 386.5 clipbox
370.582582 386.509091 m
376.495059 386.509091 l
376.495059 463.16158 l
370.582582 463.16158 l
cl
1.000 0.498 0.055 setrgbcolor
fill
grestore
gsave
507.3 247.1 180 386.5 clipbox
376.495059 386.509091 m
382.407535 386.509091 l
382.407535 501.487825 l
376.495059 501.487825 l
cl
1.000 0.498 0.055 setrgbcolor
fill
grestore
gsave
507.3 247.1 180 386.5 clipbox
382.407535 386.509091 m
388.320012 386.509091 l
388.320012 463.16158 l
382.407535 463.16158 l
cl
1.000 0.498 0.055 setrgbcolor
fill
grestore
gsave
507.3 247.1 180 386.5 clipbox
388.320012 386.509091 m
394.232489 386.509091 l
394.232489 539.814069 l
388.320012 539.814069 l
cl
1.000 0.498 0.055 setrgbcolor
fill
grestore
gsave
507.3 247.1 180 386.5 clipbox
394.232489 386.509091 m
400.144965 386.509091 l
400.144965 539.814069 l
394.232489 539.814069 l
cl
1.000 0.498 0.055 setrgbcolor
fill
grestore
gsave
507.3 247.1 180 386.5 clipbox
400.144965 386.509091 m
406.057442 386.509091 l
406.057442 463.16158 l
400.144965 463.16158 l
cl
1.000 0.498 0.055 setrgbcolor
fill
grestore
gsave
507.3 247.1 180 386.5 clipbox
406.057442 386.509091 m
411.969919 386.509091 l
411.969919 578.140314 l
406.057442 578.140314 l
cl
1.000 0.498 0.055 setrgbcolor
fill
grestore
gsave
507.3 247.1 180 386.5 clipbox
411.969919 386.509091 m
417.882395 386.509091 l
417.882395 578.140314 l
411.969919 578.140314 l
cl
1.000 0.498 0.055 setrgbcolor
fill
grestore
gsave
507.3 247.1 180 386.5 clipbox
417.882395 386.509091 m
423.794872 386.509091 l
423.794872 539.814069 l
417.882395 539.814069 l
cl
1.000 0.498 0.055 setrgbcolor
fill
grestore
gsave
507.3 247.1 180 386.5 clipbox
423.794872 386.509091 m
429.707349 386.509091 l
429.707349 424.835335 l
423.794872 424.835335 l
cl
1.000 0.498 0.055 setrgbcolor
fill
grestore
gsave
507.3 247.1 180 386.5 clipbox
429.707349 386.509091 m
435.619825 386.509091 l
435.619825 539.814069 l
429.707349 539.814069 l
cl
1.000 0.498 0.055 setrgbcolor
fill
grestore
gsave
507.3 247.1 180 386.5 clipbox
435.619825 386.509091 m
441.532302 386.509091 l
441.532302 501.487825 l
435.619825 501.487825 l
cl
1.000 0.498 0.055 setrgbcolor
fill
grestore
gsave
507.3 247.1 180 386.5 clipbox
441.532302 386.509091 m
447.444779 386.509091 l
447.444779 501.487825 l
441.532302 501.487825 l
cl
1.000 0.498 0.055 setrgbcolor
fill
grestore
gsave
507.3 247.1 180 386.5 clipbox
447.444779 386.509091 m
453.357255 386.509091 l
453.357255 424.835335 l
447.444779 424.835335 l
cl
1.000 0.498 0.055 setrgbcolor
fill
grestore
0.800 setlinewidth
1 setlinejoin
0 setlinecap
[] 0 setdash
0.000 setgray
gsave
/o {
gsave
newpath
translate
0.8 setlinewidth
1 setlinejoin
0 setlinecap
0 0 m
0 -3.5 l

gsave
0.000 setgray
fill
grestore
stroke
grestore
} bind def
203.058 386.509 o
grestore
/DejaVuSans findfont
22.000 scalefont
setfont
gsave
189.057851 362.790341 translate
0.000000 rotate
0.000000 0.000000 m /one glyphshow
13.997070 0.000000 m /zero glyphshow
grestore
gsave
/o {
gsave
newpath
translate
0.8 setlinewidth
1 setlinejoin
0 setlinecap
0 0 m
0 -3.5 l

gsave
0.000 setgray
fill
grestore
stroke
grestore
} bind def
279.917 386.509 o
grestore
gsave
265.917355 362.790341 translate
0.000000 rotate
0.000000 0.000000 m /one glyphshow
13.997070 0.000000 m /five glyphshow
grestore
gsave
/o {
gsave
newpath
translate
0.8 setlinewidth
1 setlinejoin
0 setlinecap
0 0 m
0 -3.5 l

gsave
0.000 setgray
fill
grestore
stroke
grestore
} bind def
356.777 386.509 o
grestore
gsave
342.776860 362.790341 translate
0.000000 rotate
0.000000 0.000000 m /two glyphshow
13.997070 0.000000 m /zero glyphshow
grestore
gsave
/o {
gsave
newpath
translate
0.8 setlinewidth
1 setlinejoin
0 setlinecap
0 0 m
0 -3.5 l

gsave
0.000 setgray
fill
grestore
stroke
grestore
} bind def
433.636 386.509 o
grestore
gsave
419.636364 362.790341 translate
0.000000 rotate
0.000000 0.000000 m /two glyphshow
13.997070 0.000000 m /five glyphshow
grestore
gsave
/o {
gsave
newpath
translate
0.8 setlinewidth
1 setlinejoin
0 setlinecap
0 0 m
0 -3.5 l

gsave
0.000 setgray
fill
grestore
stroke
grestore
} bind def
510.496 386.509 o
grestore
gsave
496.495868 362.790341 translate
0.000000 rotate
0.000000 0.000000 m /three glyphshow
13.997070 0.000000 m /zero glyphshow
grestore
gsave
/o {
gsave
newpath
translate
0.8 setlinewidth
1 setlinejoin
0 setlinecap
0 0 m
0 -3.5 l

gsave
0.000 setgray
fill
grestore
stroke
grestore
} bind def
587.355 386.509 o
grestore
gsave
573.355372 362.790341 translate
0.000000 rotate
0.000000 0.000000 m /three glyphshow
13.997070 0.000000 m /five glyphshow
grestore
gsave
/o {
gsave
newpath
translate
0.8 setlinewidth
1 setlinejoin
0 setlinecap
0 0 m
0 -3.5 l

gsave
0.000 setgray
fill
grestore
stroke
grestore
} bind def
664.215 386.509 o
grestore
gsave
650.214876 362.790341 translate
0.000000 rotate
0.000000 0.000000 m /four glyphshow
13.997070 0.000000 m /zero glyphshow
grestore
gsave
/o {
gsave
newpath
translate
0.8 setlinewidth
1 setlinejoin
0 setlinecap
0 0 m
-3.5 0 l

gsave
0.000 setgray
fill
grestore
stroke
grestore
} bind def
180 386.509 o
grestore
gsave
138.000000 378.149716 translate
0.000000 rotate
0.000000 0.000000 m /zero glyphshow
13.997070 0.000000 m /period glyphshow
20.990234 0.000000 m /zero glyphshow
grestore
gsave
/o {
gsave
newpath
translate
0.8 setlinewidth
1 setlinejoin
0 setlinecap
0 0 m
-3.5 0 l

gsave
0.000 setgray
fill
grestore
stroke
grestore
} bind def
180 480.854 o
grestore
gsave
138.000000 472.494546 translate
0.000000 rotate
0.000000 0.000000 m /zero glyphshow
13.997070 0.000000 m /period glyphshow
20.990234 0.000000 m /one glyphshow
grestore
gsave
/o {
gsave
newpath
translate
0.8 setlinewidth
1 setlinejoin
0 setlinecap
0 0 m
-3.5 0 l

gsave
0.000 setgray
fill
grestore
stroke
grestore
} bind def
180 575.199 o
grestore
gsave
138.000000 566.839376 translate
0.000000 rotate
0.000000 0.000000 m /zero glyphshow
13.997070 0.000000 m /period glyphshow
20.990234 0.000000 m /two glyphshow
grestore
gsave
129.421875 488.757670 translate
90.000000 rotate
0.000000 0.000000 m /p glyphshow
13.964844 0.000000 m /parenleft glyphshow
22.547852 0.000000 m /s glyphshow
34.009766 0.000000 m /parenright glyphshow
grestore
1.500 setlinewidth
2 setlinecap
0.173 0.627 0.173 setrgbcolor
gsave
507.3 247.1 180 386.5 clipbox
203.057851 386.509091 m
207.716003 386.509091 l
212.374155 386.509091 l
217.032307 386.509091 l
221.690458 386.509091 l
226.34861 386.509091 l
231.006762 386.509092 l
235.664914 386.509093 l
240.323065 386.509096 l
244.981217 386.5091 l
249.639369 386.50911 l
254.297521 386.509127 l
258.955672 386.50916 l
263.613824 386.50922 l
268.271976 386.50933 l
272.930128 386.509527 l
277.588279 386.509877 l
282.246431 386.510488 l
286.904583 386.511539 l
291.562735 386.51332 l
296.220887 386.516297 l
300.879038 386.521198 l
305.53719 386.529153 l
310.195342 386.541874 l
314.853494 386.561919 l
319.511645 386.593042 l
324.169797 386.640655 l
328.827949 386.712415 l
333.486101 386.818968 l
338.144252 386.974822 l
342.802404 387.199374 l
347.460556 387.51803 l
352.118708 387.963372 l
356.77686 388.57627 l
361.435011 389.406792 l
366.093163 390.51476 l
370.751315 391.969717 l
375.409467 393.8501 l
380.067618 396.241381 l
384.72577 399.232992 l
389.383922 402.913911 l
394.042074 407.366895 l
398.700225 412.661497 l
403.358377 418.84616 l
408.016529 425.939891 l
412.674681 433.92417 l
417.332832 442.735883 l
421.990984 452.262167 l
426.649136 462.337996 l
431.307288 472.747242 l
435.96544 483.227698 l
440.623591 493.480217 l
445.281743 503.181737 l
449.939895 512.001503 l
454.598047 519.619442 l
459.256198 525.745282 l
463.91435 530.136848 l
468.572502 532.615938 l
473.230654 533.080309 l
477.888805 531.510683 l
482.546957 527.972065 l
487.205109 522.609283 l
491.863261 515.637154 l
496.521412 507.32621 l
501.179564 497.985317 l
505.837716 487.942724 l
510.495868 477.527166 l
515.15402 467.050506 l
519.812171 456.793145 l
524.470323 446.993062 l
529.128475 437.838909 l
533.786627 429.467195 l
538.444778 421.963187 l
543.10293 415.364928 l
547.761082 409.669535 l
552.419234 404.840929 l
557.077385 400.818151 l
561.735537 397.523524 l
566.393689 394.870108 l
571.051841 392.768049 l
575.709992 391.129611 l
580.368144 389.872856 l
585.026296 388.924031 l
589.684448 388.218843 l
594.3426 387.70282 l
599.000751 387.331001 l
603.658903 387.067161 l
608.317055 386.88277 l
612.975207 386.75584 l
617.633358 386.669769 l
622.29151 386.612273 l
626.949662 386.574434 l
631.607814 386.549898 l
636.265965 386.534223 l
640.924117 386.524355 l
645.582269 386.518233 l
650.240421 386.51449 l
654.898573 386.512236 l
659.556724 386.510897 l
664.214876 386.510114 l
stroke
grestore
0.839 0.153 0.157 setrgbcolor
gsave
507.3 247.1 180 386.5 clipbox
203.057851 386.50923 m
207.716003 386.509367 l
212.374155 386.509629 l
217.032307 386.510123 l
221.690458 386.511037 l
226.34861 386.512699 l
231.006762 386.515663 l
235.664914 386.520859 l
240.323065 386.529801 l
244.981217 386.544914 l
249.639369 386.569994 l
254.297521 386.610863 l
258.955672 386.676244 l
263.613824 386.77893 l
268.271976 386.937241 l
272.930128 387.176803 l
277.588279 387.532583 l
282.246431 388.05108 l
286.904583 388.792481 l
291.562735 389.832475 l
296.220887 391.263351 l
300.879038 393.193871 l
305.53719 395.747414 l
310.195342 399.057856 l
314.853494 403.262788 l
319.511645 408.493873 l
324.169797 414.864472 l
328.827949 422.455097 l
333.486101 431.297705 l
338.144252 441.360329 l
342.802404 452.533888 l
347.460556 464.623211 l
352.118708 477.34422 l
356.77686 490.328837 l
361.435011 503.138457 l
366.093163 515.285911 l
370.751315 526.264719 l
375.409467 535.583379 l
380.067618 542.801544 l
384.72577 547.564421 l
389.383922 549.63165 l
394.042074 548.897406 l
398.700225 545.39938 l
403.358377 539.315568 l
408.016529 530.949264 l
412.674681 520.704007 l
417.332832 509.051371 l
421.990984 496.495159 l
426.649136 483.535783 l
431.307288 470.638261 l
435.96544 458.206557 l
440.623591 446.565982 l
445.281743 435.954242 l
449.939895 426.520735 l
454.598047 418.332809 l
459.256198 411.387194 l
463.91435 405.624581 l
468.572502 400.945376 l
473.230654 397.224957 l
477.888805 394.327186 l
482.546957 392.115392 l
487.205109 390.460516 l
491.863261 389.246457 l
496.521412 388.372953 l
501.179564 387.756465 l
505.837716 387.329596 l
510.495868 387.039569 l
515.15402 386.846189 l
519.812171 386.719637 l
524.470323 386.638343 l
529.128475 386.58708 l
533.786627 386.555343 l
538.444778 386.536051 l
543.10293 386.524537 l
547.761082 386.517789 l
552.419234 386.513905 l
557.077385 386.51171 l
561.735537 386.510491 l
566.393689 386.509827 l
571.051841 386.509471 l
575.709992 386.509284 l
580.368144 386.509187 l
585.026296 386.509138 l
589.684448 386.509114 l
594.3426 386.509102 l
599.000751 386.509096 l
603.658903 386.509093 l
608.317055 386.509092 l
612.975207 386.509091 l
617.633358 386.509091 l
622.29151 386.509091 l
626.949662 386.509091 l
631.607814 386.509091 l
636.265965 386.509091 l
640.924117 386.509091 l
645.582269 386.509091 l
650.240421 386.509091 l
654.898573 386.509091 l
659.556724 386.509091 l
664.214876 386.509091 l
stroke
grestore
0.800 setlinewidth
0 setlinejoin
[] 0 setdash
0.000 setgray
gsave
180 386.509091 m
180 633.6 l
stroke
grestore
gsave
687.272727 386.509091 m
687.272727 633.6 l
stroke
grestore
gsave
180 386.509091 m
687.272727 386.509091 l
stroke
grestore
gsave
180 633.6 m
687.272727 633.6 l
stroke
grestore
/DejaVuSans findfont
26.400 scalefont
setfont
gsave
327.581676 639.818750 translate
0.000000 rotate
0.000000 0.000000 m /n glyphshow
16.726089 0.000000 m /underscore glyphshow
29.921402 0.000000 m /s glyphshow
43.670807 0.000000 m /a glyphshow
59.842789 0.000000 m /m glyphshow
85.550446 0.000000 m /p glyphshow
102.302307 0.000000 m /l glyphshow
109.634460 0.000000 m /e glyphshow
125.870880 0.000000 m /s glyphshow
139.620285 0.000000 m /space glyphshow
148.009094 0.000000 m /equal glyphshow
170.121552 0.000000 m /space glyphshow
178.510361 0.000000 m /six glyphshow
195.300873 0.000000 m /four glyphshow
grestore
gsave
788.727273 386.509091 m
1296 386.509091 l
1296 633.6 l
788.727273 633.6 l
cl
1.000 setgray
fill
grestore
gsave
507.3 247.1 788.7 386.5 clipbox
982.538847 386.509091 m
989.452688 386.509091 l
989.452688 415.245725 l
982.538847 415.245725 l
cl
0.122 0.467 0.706 setrgbcolor
fill
grestore
gsave
507.3 247.1 788.7 386.5 clipbox
989.452688 386.509091 m
996.366529 386.509091 l
996.366529 405.666847 l
989.452688 405.666847 l
cl
0.122 0.467 0.706 setrgbcolor
fill
grestore
gsave
507.3 247.1 788.7 386.5 clipbox
996.366529 386.509091 m
1003.28037 386.509091 l
1003.28037 415.245725 l
996.366529 415.245725 l
cl
0.122 0.467 0.706 setrgbcolor
fill
grestore
gsave
507.3 247.1 788.7 386.5 clipbox
1003.28037 386.509091 m
1010.194211 386.509091 l
1010.194211 434.403482 l
1003.28037 434.403482 l
cl
0.122 0.467 0.706 setrgbcolor
fill
grestore
gsave
507.3 247.1 788.7 386.5 clipbox
1010.194211 386.509091 m
1017.108052 386.509091 l
1017.108052 453.561238 l
1010.194211 453.561238 l
cl
0.122 0.467 0.706 setrgbcolor
fill
grestore
gsave
507.3 247.1 788.7 386.5 clipbox
1017.108052 386.509091 m
1024.021893 386.509091 l
1024.021893 463.140116 l
1017.108052 463.140116 l
cl
0.122 0.467 0.706 setrgbcolor
fill
grestore
gsave
507.3 247.1 788.7 386.5 clipbox
1024.021893 386.509091 m
1030.935734 386.509091 l
1030.935734 491.876751 l
1024.021893 491.876751 l
cl
0.122 0.467 0.706 setrgbcolor
fill
grestore
gsave
507.3 247.1 788.7 386.5 clipbox
1030.935734 386.509091 m
1037.849575 386.509091 l
1037.849575 520.613385 l
1030.935734 520.613385 l
cl
0.122 0.467 0.706 setrgbcolor
fill
grestore
gsave
507.3 247.1 788.7 386.5 clipbox
1037.849575 386.509091 m
1044.763416 386.509091 l
1044.763416 568.507776 l
1037.849575 568.507776 l
cl
0.122 0.467 0.706 setrgbcolor
fill
grestore
gsave
507.3 247.1 788.7 386.5 clipbox
1044.763416 386.509091 m
1051.677257 386.509091 l
1051.677257 501.455629 l
1044.763416 501.455629 l
cl
0.122 0.467 0.706 setrgbcolor
fill
grestore
gsave
507.3 247.1 788.7 386.5 clipbox
1051.677257 386.509091 m
1058.591098 386.509091 l
1058.591098 558.928898 l
1051.677257 558.928898 l
cl
0.122 0.467 0.706 setrgbcolor
fill
grestore
gsave
507.3 247.1 788.7 386.5 clipbox
1058.591098 386.509091 m
1065.504939 386.509091 l
1065.504939 597.24441 l
1058.591098 597.24441 l
cl
0.122 0.467 0.706 setrgbcolor
fill
grestore
gsave
507.3 247.1 788.7 386.5 clipbox
1065.504939 386.509091 m
1072.41878 386.509091 l
1072.41878 578.086654 l
1065.504939 578.086654 l
cl
0.122 0.467 0.706 setrgbcolor
fill
grestore
gsave
507.3 247.1 788.7 386.5 clipbox
1072.41878 386.509091 m
1079.332622 386.509091 l
1079.332622 587.665532 l
1072.41878 587.665532 l
cl
0.122 0.467 0.706 setrgbcolor
fill
grestore
gsave
507.3 247.1 788.7 386.5 clipbox
1079.332622 386.509091 m
1086.246463 386.509091 l
1086.246463 539.771141 l
1079.332622 539.771141 l
cl
0.122 0.467 0.706 setrgbcolor
fill
grestore
gsave
507.3 247.1 788.7 386.5 clipbox
1086.246463 386.509091 m
1093.160304 386.509091 l
1093.160304 549.350019 l
1086.246463 549.350019 l
cl
0.122 0.467 0.706 setrgbcolor
fill
grestore
gsave
507.3 247.1 788.7 386.5 clipbox
1093.160304 386.509091 m
1100.074145 386.509091 l
1100.074145 511.034507 l
1093.160304 511.034507 l
cl
0.122 0.467 0.706 setrgbcolor
fill
grestore
gsave
507.3 247.1 788.7 386.5 clipbox
1100.074145 386.509091 m
1106.987986 386.509091 l
1106.987986 491.876751 l
1100.074145 491.876751 l
cl
0.122 0.467 0.706 setrgbcolor
fill
grestore
gsave
507.3 247.1 788.7 386.5 clipbox
1106.987986 386.509091 m
1113.901827 386.509091 l
1113.901827 453.561238 l
1106.987986 453.561238 l
cl
0.122 0.467 0.706 setrgbcolor
fill
grestore
gsave
507.3 247.1 788.7 386.5 clipbox
1113.901827 386.509091 m
1120.815668 386.509091 l
1120.815668 472.718994 l
1113.901827 472.718994 l
cl
0.122 0.467 0.706 setrgbcolor
fill
grestore
gsave
507.3 247.1 788.7 386.5 clipbox
1120.815668 386.509091 m
1127.729509 386.509091 l
1127.729509 443.98236 l
1120.815668 443.98236 l
cl
0.122 0.467 0.706 setrgbcolor
fill
grestore
gsave
507.3 247.1 788.7 386.5 clipbox
1127.729509 386.509091 m
1134.64335 386.509091 l
1134.64335 434.403482 l
1127.729509 434.403482 l
cl
0.122 0.467 0.706 setrgbcolor
fill
grestore
gsave
507.3 247.1 788.7 386.5 clipbox
1134.64335 386.509091 m
1141.557191 386.509091 l
1141.557191 405.666847 l
1134.64335 405.666847 l
cl
0.122 0.467 0.706 setrgbcolor
fill
grestore
gsave
507.3 247.1 788.7 386.5 clipbox
1141.557191 386.509091 m
1148.471032 386.509091 l
1148.471032 415.245725 l
1141.557191 415.245725 l
cl
0.122 0.467 0.706 setrgbcolor
fill
grestore
gsave
507.3 247.1 788.7 386.5 clipbox
1148.471032 386.509091 m
1155.384873 386.509091 l
1155.384873 405.666847 l
1148.471032 405.666847 l
cl
0.122 0.467 0.706 setrgbcolor
fill
grestore
gsave
507.3 247.1 788.7 386.5 clipbox
936.631696 386.509091 m
943.667385 386.509091 l
943.667385 424.161039 l
936.631696 424.161039 l
cl
1.000 0.498 0.055 setrgbcolor
fill
grestore
gsave
507.3 247.1 788.7 386.5 clipbox
943.667385 386.509091 m
950.703073 386.509091 l
950.703073 424.161039 l
943.667385 424.161039 l
cl
1.000 0.498 0.055 setrgbcolor
fill
grestore
gsave
507.3 247.1 788.7 386.5 clipbox
950.703073 386.509091 m
957.738761 386.509091 l
957.738761 405.335065 l
950.703073 405.335065 l
cl
1.000 0.498 0.055 setrgbcolor
fill
grestore
gsave
507.3 247.1 788.7 386.5 clipbox
957.738761 386.509091 m
964.774449 386.509091 l
964.774449 424.161039 l
957.738761 424.161039 l
cl
1.000 0.498 0.055 setrgbcolor
fill
grestore
gsave
507.3 247.1 788.7 386.5 clipbox
964.774449 386.509091 m
971.810137 386.509091 l
971.810137 452.4 l
964.774449 452.4 l
cl
1.000 0.498 0.055 setrgbcolor
fill
grestore
gsave
507.3 247.1 788.7 386.5 clipbox
971.810137 386.509091 m
978.845825 386.509091 l
978.845825 461.812987 l
971.810137 461.812987 l
cl
1.000 0.498 0.055 setrgbcolor
fill
grestore
gsave
507.3 247.1 788.7 386.5 clipbox
978.845825 386.509091 m
985.881513 386.509091 l
985.881513 499.464935 l
978.845825 499.464935 l
cl
1.000 0.498 0.055 setrgbcolor
fill
grestore
gsave
507.3 247.1 788.7 386.5 clipbox
985.881513 386.509091 m
992.917201 386.509091 l
992.917201 565.355844 l
985.881513 565.355844 l
cl
1.000 0.498 0.055 setrgbcolor
fill
grestore
gsave
507.3 247.1 788.7 386.5 clipbox
992.917201 386.509091 m
999.95289 386.509091 l
999.95289 546.52987 l
992.917201 546.52987 l
cl
1.000 0.498 0.055 setrgbcolor
fill
grestore
gsave
507.3 247.1 788.7 386.5 clipbox
999.95289 386.509091 m
1006.988578 386.509091 l
1006.988578 584.181818 l
999.95289 584.181818 l
cl
1.000 0.498 0.055 setrgbcolor
fill
grestore
gsave
507.3 247.1 788.7 386.5 clipbox
1006.988578 386.509091 m
1014.024266 386.509091 l
1014.024266 546.52987 l
1006.988578 546.52987 l
cl
1.000 0.498 0.055 setrgbcolor
fill
grestore
gsave
507.3 247.1 788.7 386.5 clipbox
1014.024266 386.509091 m
1021.059954 386.509091 l
1021.059954 527.703896 l
1014.024266 527.703896 l
cl
1.000 0.498 0.055 setrgbcolor
fill
grestore
gsave
507.3 247.1 788.7 386.5 clipbox
1021.059954 386.509091 m
1028.095642 386.509091 l
1028.095642 537.116883 l
1021.059954 537.116883 l
cl
1.000 0.498 0.055 setrgbcolor
fill
grestore
gsave
507.3 247.1 788.7 386.5 clipbox
1028.095642 386.509091 m
1035.13133 386.509091 l
1035.13133 621.833766 l
1028.095642 621.833766 l
cl
1.000 0.498 0.055 setrgbcolor
fill
grestore
gsave
507.3 247.1 788.7 386.5 clipbox
1035.13133 386.509091 m
1042.167018 386.509091 l
1042.167018 527.703896 l
1035.13133 527.703896 l
cl
1.000 0.498 0.055 setrgbcolor
fill
grestore
gsave
507.3 247.1 788.7 386.5 clipbox
1042.167018 386.509091 m
1049.202706 386.509091 l
1049.202706 537.116883 l
1042.167018 537.116883 l
cl
1.000 0.498 0.055 setrgbcolor
fill
grestore
gsave
507.3 247.1 788.7 386.5 clipbox
1049.202706 386.509091 m
1056.238395 386.509091 l
1056.238395 537.116883 l
1049.202706 537.116883 l
cl
1.000 0.498 0.055 setrgbcolor
fill
grestore
gsave
507.3 247.1 788.7 386.5 clipbox
1056.238395 386.509091 m
1063.274083 386.509091 l
1063.274083 452.4 l
1056.238395 452.4 l
cl
1.000 0.498 0.055 setrgbcolor
fill
grestore
gsave
507.3 247.1 788.7 386.5 clipbox
1063.274083 386.509091 m
1070.309771 386.509091 l
1070.309771 433.574026 l
1063.274083 433.574026 l
cl
1.000 0.498 0.055 setrgbcolor
fill
grestore
gsave
507.3 247.1 788.7 386.5 clipbox
1070.309771 386.509091 m
1077.345459 386.509091 l
1077.345459 461.812987 l
1070.309771 461.812987 l
cl
1.000 0.498 0.055 setrgbcolor
fill
grestore
gsave
507.3 247.1 788.7 386.5 clipbox
1077.345459 386.509091 m
1084.381147 386.509091 l
1084.381147 442.987013 l
1077.345459 442.987013 l
cl
1.000 0.498 0.055 setrgbcolor
fill
grestore
gsave
507.3 247.1 788.7 386.5 clipbox
1084.381147 386.509091 m
1091.416835 386.509091 l
1091.416835 424.161039 l
1084.381147 424.161039 l
cl
1.000 0.498 0.055 setrgbcolor
fill
grestore
gsave
507.3 247.1 788.7 386.5 clipbox
1091.416835 386.509091 m
1098.452523 386.509091 l
1098.452523 414.748052 l
1091.416835 414.748052 l
cl
1.000 0.498 0.055 setrgbcolor
fill
grestore
gsave
507.3 247.1 788.7 386.5 clipbox
1098.452523 386.509091 m
1105.488211 386.509091 l
1105.488211 405.335065 l
1098.452523 405.335065 l
cl
1.000 0.498 0.055 setrgbcolor
fill
grestore
gsave
507.3 247.1 788.7 386.5 clipbox
1105.488211 386.509091 m
1112.5239 386.509091 l
1112.5239 414.748052 l
1105.488211 414.748052 l
cl
1.000 0.498 0.055 setrgbcolor
fill
grestore
1 setlinejoin
0 setlinecap
[] 0 setdash
gsave
/o {
gsave
newpath
translate
0.8 setlinewidth
1 setlinejoin
0 setlinecap
0 0 m
0 -3.5 l

gsave
0.000 setgray
fill
grestore
stroke
grestore
} bind def
811.785 386.509 o
grestore
/DejaVuSans findfont
22.000 scalefont
setfont
gsave
797.785124 362.790341 translate
0.000000 rotate
0.000000 0.000000 m /one glyphshow
13.997070 0.000000 m /zero glyphshow
grestore
gsave
/o {
gsave
newpath
translate
0.8 setlinewidth
1 setlinejoin
0 setlinecap
0 0 m
0 -3.5 l

gsave
0.000 setgray
fill
grestore
stroke
grestore
} bind def
888.645 386.509 o
grestore
gsave
874.644628 362.790341 translate
0.000000 rotate
0.000000 0.000000 m /one glyphshow
13.997070 0.000000 m /five glyphshow
grestore
gsave
/o {
gsave
newpath
translate
0.8 setlinewidth
1 setlinejoin
0 setlinecap
0 0 m
0 -3.5 l

gsave
0.000 setgray
fill
grestore
stroke
grestore
} bind def
965.504 386.509 o
grestore
gsave
951.504132 362.790341 translate
0.000000 rotate
0.000000 0.000000 m /two glyphshow
13.997070 0.000000 m /zero glyphshow
grestore
gsave
/o {
gsave
newpath
translate
0.8 setlinewidth
1 setlinejoin
0 setlinecap
0 0 m
0 -3.5 l

gsave
0.000 setgray
fill
grestore
stroke
grestore
} bind def
1042.36 386.509 o
grestore
gsave
1028.363636 362.790341 translate
0.000000 rotate
0.000000 0.000000 m /two glyphshow
13.997070 0.000000 m /five glyphshow
grestore
gsave
/o {
gsave
newpath
translate
0.8 setlinewidth
1 setlinejoin
0 setlinecap
0 0 m
0 -3.5 l

gsave
0.000 setgray
fill
grestore
stroke
grestore
} bind def
1119.22 386.509 o
grestore
gsave
1105.223140 362.790341 translate
0.000000 rotate
0.000000 0.000000 m /three glyphshow
13.997070 0.000000 m /zero glyphshow
grestore
gsave
/o {
gsave
newpath
translate
0.8 setlinewidth
1 setlinejoin
0 setlinecap
0 0 m
0 -3.5 l

gsave
0.000 setgray
fill
grestore
stroke
grestore
} bind def
1196.08 386.509 o
grestore
gsave
1182.082645 362.790341 translate
0.000000 rotate
0.000000 0.000000 m /three glyphshow
13.997070 0.000000 m /five glyphshow
grestore
gsave
/o {
gsave
newpath
translate
0.8 setlinewidth
1 setlinejoin
0 setlinecap
0 0 m
0 -3.5 l

gsave
0.000 setgray
fill
grestore
stroke
grestore
} bind def
1272.94 386.509 o
grestore
gsave
1258.942149 362.790341 translate
0.000000 rotate
0.000000 0.000000 m /four glyphshow
13.997070 0.000000 m /zero glyphshow
grestore
gsave
/o {
gsave
newpath
translate
0.8 setlinewidth
1 setlinejoin
0 setlinecap
0 0 m
-3.5 0 l

gsave
0.000 setgray
fill
grestore
stroke
grestore
} bind def
788.727 386.509 o
grestore
gsave
732.727273 378.149716 translate
0.000000 rotate
0.000000 0.000000 m /zero glyphshow
13.997070 0.000000 m /period glyphshow
20.990234 0.000000 m /zero glyphshow
34.987305 0.000000 m /zero glyphshow
grestore
gsave
/o {
gsave
newpath
translate
0.8 setlinewidth
1 setlinejoin
0 setlinecap
0 0 m
-3.5 0 l

gsave
0.000 setgray
fill
grestore
stroke
grestore
} bind def
788.727 441.655 o
grestore
gsave
732.727273 433.296023 translate
0.000000 rotate
0.000000 0.000000 m /zero glyphshow
13.997070 0.000000 m /period glyphshow
20.990234 0.000000 m /zero glyphshow
34.987305 0.000000 m /five glyphshow
grestore
gsave
/o {
gsave
newpath
translate
0.8 setlinewidth
1 setlinejoin
0 setlinecap
0 0 m
-3.5 0 l

gsave
0.000 setgray
fill
grestore
stroke
grestore
} bind def
788.727 496.802 o
grestore
gsave
732.727273 488.442330 translate
0.000000 rotate
0.000000 0.000000 m /zero glyphshow
13.997070 0.000000 m /period glyphshow
20.990234 0.000000 m /one glyphshow
34.987305 0.000000 m /zero glyphshow
grestore
gsave
/o {
gsave
newpath
translate
0.8 setlinewidth
1 setlinejoin
0 setlinecap
0 0 m
-3.5 0 l

gsave
0.000 setgray
fill
grestore
stroke
grestore
} bind def
788.727 551.948 o
grestore
gsave
732.727273 543.588637 translate
0.000000 rotate
0.000000 0.000000 m /zero glyphshow
13.997070 0.000000 m /period glyphshow
20.990234 0.000000 m /one glyphshow
34.987305 0.000000 m /five glyphshow
grestore
gsave
/o {
gsave
newpath
translate
0.8 setlinewidth
1 setlinejoin
0 setlinecap
0 0 m
-3.5 0 l

gsave
0.000 setgray
fill
grestore
stroke
grestore
} bind def
788.727 607.094 o
grestore
gsave
732.727273 598.734944 translate
0.000000 rotate
0.000000 0.000000 m /zero glyphshow
13.997070 0.000000 m /period glyphshow
20.990234 0.000000 m /two glyphshow
34.987305 0.000000 m /zero glyphshow
grestore
gsave
724.149148 488.757670 translate
90.000000 rotate
0.000000 0.000000 m /p glyphshow
13.964844 0.000000 m /parenleft glyphshow
22.547852 0.000000 m /s glyphshow
34.009766 0.000000 m /parenright glyphshow
grestore
1.500 setlinewidth
2 setlinecap
0.173 0.627 0.173 setrgbcolor
gsave
507.3 247.1 788.7 386.5 clipbox
811.785124 386.509091 m
816.443276 386.509091 l
821.101427 386.509091 l
825.759579 386.509091 l
830.417731 386.509091 l
835.075883 386.509091 l
839.734035 386.509091 l
844.392186 386.509091 l
849.050338 386.509092 l
853.70849 386.509093 l
858.366642 386.509095 l
863.024793 386.509099 l
867.682945 386.509108 l
872.341097 386.509127 l
876.999249 386.509166 l
881.6574 386.509244 l
886.315552 386.509398 l
890.973704 386.509696 l
895.631856 386.510262 l
900.290008 386.511319 l
904.948159 386.513256 l
909.606311 386.51674 l
914.264463 386.522892 l
918.922615 386.533554 l
923.580766 386.551692 l
928.238918 386.581978 l
932.89707 386.631607 l
937.555222 386.711417 l
942.213373 386.837356 l
946.871525 387.032345 l
951.529677 387.328526 l
956.187829 387.769847 l
960.84598 388.414825 l
965.504132 389.339233 l
970.162284 390.638317 l
974.820436 392.42803 l
979.478588 394.844629 l
984.136739 398.041978 l
988.794891 402.185879 l
993.453043 407.44495 l
998.111195 413.977854 l
1002.769346 421.917146 l
1007.427498 431.350545 l
1012.08565 442.301091 l
1016.743802 454.708217 l
1021.401953 468.41219 l
1026.060105 483.144545 l
1030.718257 498.526956 l
1035.376409 514.080316 l
1040.03456 529.244854 l
1044.692712 543.410742 l
1049.350864 555.957254 l
1054.009016 566.297154 l
1058.667168 573.921991 l
1063.325319 578.443459 l
1067.983471 579.626155 l
1072.641623 577.407888 l
1077.299775 571.905097 l
1081.957926 563.40272 l
1086.616078 552.329754 l
1091.27423 539.223404 l
1095.932382 524.686001 l
1100.590533 509.339486 l
1105.248685 493.782197 l
1109.906837 478.552036 l
1114.564989 464.098919 l
1119.22314 450.768054 l
1123.881292 438.794111 l
1128.539444 428.305164 l
1133.197596 419.334362 l
1137.855748 411.836793 l
1142.513899 405.708944 l
1147.172051 400.808387 l
1151.830203 396.971846 l
1156.488355 394.030377 l
1161.146506 391.821026 l
1165.804658 390.194859 l
1170.46281 389.02166 l
1175.120962 388.191852 l
1179.779113 387.616331 l
1184.437265 387.224864 l
1189.095417 386.963685 l
1193.753569 386.792744 l
1198.411721 386.682977 l
1203.069872 386.613818 l
1207.728024 386.571058 l
1212.386176 386.545114 l
1217.044328 386.529665 l
1221.702479 386.520635 l
1226.360631 386.515455 l
1231.018783 386.512538 l
1235.676935 386.510925 l
1240.335086 386.51005 l
1244.993238 386.509583 l
1249.65139 386.509339 l
1254.309542 386.509214 l
1258.967693 386.509151 l
1263.625845 386.50912 l
1268.283997 386.509104 l
1272.942149 386.509097 l
stroke
grestore
0.839 0.153 0.157 setrgbcolor
gsave
507.3 247.1 788.7 386.5 clipbox
811.785124 386.509101 m
816.443276 386.509112 l
821.101427 386.509135 l
825.759579 386.50918 l
830.417731 386.509268 l
835.075883 386.509437 l
839.734035 386.509757 l
844.392186 386.510352 l
849.050338 386.511438 l
853.70849 386.513388 l
858.366642 386.51683 l
863.024793 386.522797 l
867.682945 386.532964 l
872.341097 386.549985 l
876.999249 386.577987 l
881.6574 386.623243 l
886.315552 386.695104 l
890.973704 386.807196 l
895.631856 386.978943 l
900.290008 387.237406 l
904.948159 387.6194 l
909.606311 388.173786 l
914.264463 388.963756 l
918.922615 390.068813 l
923.580766 391.58608 l
928.238918 393.630448 l
932.89707 396.333031 l
937.555222 399.837399 l
942.213373 404.293143 l
946.871525 409.846509 l
951.529677 416.62814 l
956.187829 424.738368 l
960.84598 434.230943 l
965.504132 445.096578 l
970.162284 457.248078 l
974.820436 470.50907 l
979.478588 484.608389 l
984.136739 499.181868 l
988.794891 513.782735 l
993.453043 527.900927 l
998.111195 540.990623 l
1002.769346 552.504157 l
1007.427498 561.92952 l
1012.08565 568.827927 l
1016.743802 572.867625 l
1021.401953 573.85034 l
1026.060105 571.727401 l
1030.718257 566.603736 l
1035.376409 558.729279 l
1040.03456 548.478761 l
1044.692712 536.322165 l
1049.350864 522.789087 l
1054.009016 508.430756 l
1058.667168 493.783477 l
1063.325319 479.336786 l
1067.983471 465.508797 l
1072.641623 452.630145 l
1077.299775 440.936847 l
1081.957926 430.571423 l
1086.616078 421.590813 l
1091.27423 413.97922 l
1095.932382 407.663791 l
1100.590533 402.531191 l
1105.248685 398.44343 l
1109.906837 395.251753 l
1114.564989 392.807856 l
1119.22314 390.972158 l
1123.881292 389.619216 l
1128.539444 388.640608 l
1133.197596 387.94579 l
1137.855748 387.461469 l
1142.513899 387.129988 l
1147.172051 386.907194 l
1151.830203 386.760128 l
1156.488355 386.664776 l
1161.146506 386.604047 l
1165.804658 386.56605 l
1170.46281 386.542694 l
1175.120962 386.528587 l
1179.779113 386.520216 l
1184.437265 386.515334 l
1189.095417 386.512537 l
1193.753569 386.510961 l
1198.411721 386.510089 l
1203.069872 386.509615 l
1207.728024 386.509362 l
1212.386176 386.509228 l
1217.044328 386.50916 l
1221.702479 386.509125 l
1226.360631 386.509107 l
1231.018783 386.509099 l
1235.676935 386.509095 l
1240.335086 386.509093 l
1244.993238 386.509092 l
1249.65139 386.509091 l
1254.309542 386.509091 l
1258.967693 386.509091 l
1263.625845 386.509091 l
1268.283997 386.509091 l
1272.942149 386.509091 l
stroke
grestore
0.800 setlinewidth
0 setlinejoin
[] 0 setdash
0.000 setgray
gsave
788.727273 386.509091 m
788.727273 633.6 l
stroke
grestore
gsave
1296 386.509091 m
1296 633.6 l
stroke
grestore
gsave
788.727273 386.509091 m
1296 386.509091 l
stroke
grestore
gsave
788.727273 633.6 m
1296 633.6 l
stroke
grestore
/DejaVuSans findfont
26.400 scalefont
setfont
gsave
927.910511 639.818750 translate
0.000000 rotate
0.000000 0.000000 m /n glyphshow
16.726089 0.000000 m /underscore glyphshow
29.921402 0.000000 m /s glyphshow
43.670807 0.000000 m /a glyphshow
59.842789 0.000000 m /m glyphshow
85.550446 0.000000 m /p glyphshow
102.302307 0.000000 m /l glyphshow
109.634460 0.000000 m /e glyphshow
125.870880 0.000000 m /s glyphshow
139.620285 0.000000 m /space glyphshow
148.009094 0.000000 m /equal glyphshow
170.121552 0.000000 m /space glyphshow
178.510361 0.000000 m /two glyphshow
195.300873 0.000000 m /five glyphshow
212.091385 0.000000 m /six glyphshow
grestore
gsave
180 90 m
687.272727 90 l
687.272727 337.090909 l
180 337.090909 l
cl
1.000 setgray
fill
grestore
gsave
507.3 247.1 180 90 clipbox
338.779143 90 m
348.012084 90 l
348.012084 96.417946 l
338.779143 96.417946 l
cl
0.122 0.467 0.706 setrgbcolor
fill
grestore
gsave
507.3 247.1 180 90 clipbox
348.012084 90 m
357.245024 90 l
357.245024 90 l
348.012084 90 l
cl
0.122 0.467 0.706 setrgbcolor
fill
grestore
gsave
507.3 247.1 180 90 clipbox
357.245024 90 m
366.477965 90 l
366.477965 94.27863 l
357.245024 94.27863 l
cl
0.122 0.467 0.706 setrgbcolor
fill
grestore
gsave
507.3 247.1 180 90 clipbox
366.477965 90 m
375.710906 90 l
375.710906 96.417946 l
366.477965 96.417946 l
cl
0.122 0.467 0.706 setrgbcolor
fill
grestore
gsave
507.3 247.1 180 90 clipbox
375.710906 90 m
384.943847 90 l
384.943847 122.089728 l
375.710906 122.089728 l
cl
0.122 0.467 0.706 setrgbcolor
fill
grestore
gsave
507.3 247.1 180 90 clipbox
384.943847 90 m
394.176788 90 l
394.176788 124.229044 l
384.943847 124.229044 l
cl
0.122 0.467 0.706 setrgbcolor
fill
grestore
gsave
507.3 247.1 180 90 clipbox
394.176788 90 m
403.409729 90 l
403.409729 158.458087 l
394.176788 158.458087 l
cl
0.122 0.467 0.706 setrgbcolor
fill
grestore
gsave
507.3 247.1 180 90 clipbox
403.409729 90 m
412.642669 90 l
412.642669 207.662338 l
403.409729 207.662338 l
cl
0.122 0.467 0.706 setrgbcolor
fill
grestore
gsave
507.3 247.1 180 90 clipbox
412.642669 90 m
421.87561 90 l
421.87561 235.473436 l
412.642669 235.473436 l
cl
0.122 0.467 0.706 setrgbcolor
fill
grestore
gsave
507.3 247.1 180 90 clipbox
421.87561 90 m
431.108551 90 l
431.108551 250.448642 l
421.87561 250.448642 l
cl
0.122 0.467 0.706 setrgbcolor
fill
grestore
gsave
507.3 247.1 180 90 clipbox
431.108551 90 m
440.341492 90 l
440.341492 284.677686 l
431.108551 284.677686 l
cl
0.122 0.467 0.706 setrgbcolor
fill
grestore
gsave
507.3 247.1 180 90 clipbox
440.341492 90 m
449.574433 90 l
449.574433 297.513577 l
440.341492 297.513577 l
cl
0.122 0.467 0.706 setrgbcolor
fill
grestore
gsave
507.3 247.1 180 90 clipbox
449.574433 90 m
458.807373 90 l
458.807373 325.324675 l
449.574433 325.324675 l
cl
0.122 0.467 0.706 setrgbcolor
fill
grestore
gsave
507.3 247.1 180 90 clipbox
458.807373 90 m
468.040314 90 l
468.040314 303.931523 l
458.807373 303.931523 l
cl
0.122 0.467 0.706 setrgbcolor
fill
grestore
gsave
507.3 247.1 180 90 clipbox
468.040314 90 m
477.273255 90 l
477.273255 259.005903 l
468.040314 259.005903 l
cl
0.122 0.467 0.706 setrgbcolor
fill
grestore
gsave
507.3 247.1 180 90 clipbox
477.273255 90 m
486.506196 90 l
486.506196 248.309327 l
477.273255 248.309327 l
cl
0.122 0.467 0.706 setrgbcolor
fill
grestore
gsave
507.3 247.1 180 90 clipbox
486.506196 90 m
495.739137 90 l
495.739137 226.916175 l
486.506196 226.916175 l
cl
0.122 0.467 0.706 setrgbcolor
fill
grestore
gsave
507.3 247.1 180 90 clipbox
495.739137 90 m
504.972078 90 l
504.972078 188.408501 l
495.739137 188.408501 l
cl
0.122 0.467 0.706 setrgbcolor
fill
grestore
gsave
507.3 247.1 180 90 clipbox
504.972078 90 m
514.205018 90 l
514.205018 143.482881 l
504.972078 143.482881 l
cl
0.122 0.467 0.706 setrgbcolor
fill
grestore
gsave
507.3 247.1 180 90 clipbox
514.205018 90 m
523.437959 90 l
523.437959 149.900826 l
514.205018 149.900826 l
cl
0.122 0.467 0.706 setrgbcolor
fill
grestore
gsave
507.3 247.1 180 90 clipbox
523.437959 90 m
532.6709 90 l
532.6709 122.089728 l
523.437959 122.089728 l
cl
0.122 0.467 0.706 setrgbcolor
fill
grestore
gsave
507.3 247.1 180 90 clipbox
532.6709 90 m
541.903841 90 l
541.903841 115.671783 l
532.6709 115.671783 l
cl
0.122 0.467 0.706 setrgbcolor
fill
grestore
gsave
507.3 247.1 180 90 clipbox
541.903841 90 m
551.136782 90 l
551.136782 102.835891 l
541.903841 102.835891 l
cl
0.122 0.467 0.706 setrgbcolor
fill
grestore
gsave
507.3 247.1 180 90 clipbox
551.136782 90 m
560.369722 90 l
560.369722 100.696576 l
551.136782 100.696576 l
cl
0.122 0.467 0.706 setrgbcolor
fill
grestore
gsave
507.3 247.1 180 90 clipbox
560.369722 90 m
569.602663 90 l
569.602663 96.417946 l
560.369722 96.417946 l
cl
0.122 0.467 0.706 setrgbcolor
fill
grestore
gsave
507.3 247.1 180 90 clipbox
270.180336 90 m
281.896738 90 l
281.896738 91.685856 l
270.180336 91.685856 l
cl
1.000 0.498 0.055 setrgbcolor
fill
grestore
gsave
507.3 247.1 180 90 clipbox
281.896738 90 m
293.613141 90 l
293.613141 93.371712 l
281.896738 93.371712 l
cl
1.000 0.498 0.055 setrgbcolor
fill
grestore
gsave
507.3 247.1 180 90 clipbox
293.613141 90 m
305.329544 90 l
305.329544 91.685856 l
293.613141 91.685856 l
cl
1.000 0.498 0.055 setrgbcolor
fill
grestore
gsave
507.3 247.1 180 90 clipbox
305.329544 90 m
317.045947 90 l
317.045947 95.057569 l
305.329544 95.057569 l
cl
1.000 0.498 0.055 setrgbcolor
fill
grestore
gsave
507.3 247.1 180 90 clipbox
317.045947 90 m
328.76235 90 l
328.76235 98.429281 l
317.045947 98.429281 l
cl
1.000 0.498 0.055 setrgbcolor
fill
grestore
gsave
507.3 247.1 180 90 clipbox
328.76235 90 m
340.478753 90 l
340.478753 122.031268 l
328.76235 122.031268 l
cl
1.000 0.498 0.055 setrgbcolor
fill
grestore
gsave
507.3 247.1 180 90 clipbox
340.478753 90 m
352.195156 90 l
352.195156 132.146406 l
340.478753 132.146406 l
cl
1.000 0.498 0.055 setrgbcolor
fill
grestore
gsave
507.3 247.1 180 90 clipbox
352.195156 90 m
363.911559 90 l
363.911559 181.036236 l
352.195156 181.036236 l
cl
1.000 0.498 0.055 setrgbcolor
fill
grestore
gsave
507.3 247.1 180 90 clipbox
363.911559 90 m
375.627962 90 l
375.627962 201.266511 l
363.911559 201.266511 l
cl
1.000 0.498 0.055 setrgbcolor
fill
grestore
gsave
507.3 247.1 180 90 clipbox
375.627962 90 m
387.344365 90 l
387.344365 231.611923 l
375.627962 231.611923 l
cl
1.000 0.498 0.055 setrgbcolor
fill
grestore
gsave
507.3 247.1 180 90 clipbox
387.344365 90 m
399.060768 90 l
399.060768 292.302747 l
387.344365 292.302747 l
cl
1.000 0.498 0.055 setrgbcolor
fill
grestore
gsave
507.3 247.1 180 90 clipbox
399.060768 90 m
410.777171 90 l
410.777171 292.302747 l
399.060768 292.302747 l
cl
1.000 0.498 0.055 setrgbcolor
fill
grestore
gsave
507.3 247.1 180 90 clipbox
410.777171 90 m
422.493574 90 l
422.493574 305.789597 l
410.777171 305.789597 l
cl
1.000 0.498 0.055 setrgbcolor
fill
grestore
gsave
507.3 247.1 180 90 clipbox
422.493574 90 m
434.209977 90 l
434.209977 312.533022 l
422.493574 312.533022 l
cl
1.000 0.498 0.055 setrgbcolor
fill
grestore
gsave
507.3 247.1 180 90 clipbox
434.209977 90 m
445.92638 90 l
445.92638 250.156342 l
434.209977 250.156342 l
cl
1.000 0.498 0.055 setrgbcolor
fill
grestore
gsave
507.3 247.1 180 90 clipbox
445.92638 90 m
457.642783 90 l
457.642783 194.523086 l
445.92638 194.523086 l
cl
1.000 0.498 0.055 setrgbcolor
fill
grestore
gsave
507.3 247.1 180 90 clipbox
457.642783 90 m
469.359186 90 l
469.359186 170.921099 l
457.642783 170.921099 l
cl
1.000 0.498 0.055 setrgbcolor
fill
grestore
gsave
507.3 247.1 180 90 clipbox
469.359186 90 m
481.075589 90 l
481.075589 142.261543 l
469.359186 142.261543 l
cl
1.000 0.498 0.055 setrgbcolor
fill
grestore
gsave
507.3 247.1 180 90 clipbox
481.075589 90 m
492.791992 90 l
492.791992 113.601987 l
481.075589 113.601987 l
cl
1.000 0.498 0.055 setrgbcolor
fill
grestore
gsave
507.3 247.1 180 90 clipbox
492.791992 90 m
504.508395 90 l
504.508395 103.48685 l
492.791992 103.48685 l
cl
1.000 0.498 0.055 setrgbcolor
fill
grestore
gsave
507.3 247.1 180 90 clipbox
504.508395 90 m
516.224798 90 l
516.224798 93.371712 l
504.508395 93.371712 l
cl
1.000 0.498 0.055 setrgbcolor
fill
grestore
gsave
507.3 247.1 180 90 clipbox
516.224798 90 m
527.941201 90 l
527.941201 95.057569 l
516.224798 95.057569 l
cl
1.000 0.498 0.055 setrgbcolor
fill
grestore
gsave
507.3 247.1 180 90 clipbox
527.941201 90 m
539.657604 90 l
539.657604 90 l
527.941201 90 l
cl
1.000 0.498 0.055 setrgbcolor
fill
grestore
gsave
507.3 247.1 180 90 clipbox
539.657604 90 m
551.374007 90 l
551.374007 90 l
539.657604 90 l
cl
1.000 0.498 0.055 setrgbcolor
fill
grestore
gsave
507.3 247.1 180 90 clipbox
551.374007 90 m
563.090409 90 l
563.090409 91.685856 l
551.374007 91.685856 l
cl
1.000 0.498 0.055 setrgbcolor
fill
grestore
1 setlinejoin
0 setlinecap
[] 0 setdash
gsave
/o {
gsave
newpath
translate
0.8 setlinewidth
1 setlinejoin
0 setlinecap
0 0 m
0 -3.5 l

gsave
0.000 setgray
fill
grestore
stroke
grestore
} bind def
203.058 90 o
grestore
/DejaVuSans findfont
22.000 scalefont
setfont
gsave
189.057851 66.281250 translate
0.000000 rotate
0.000000 0.000000 m /one glyphshow
13.997070 0.000000 m /zero glyphshow
grestore
gsave
/o {
gsave
newpath
translate
0.8 setlinewidth
1 setlinejoin
0 setlinecap
0 0 m
0 -3.5 l

gsave
0.000 setgray
fill
grestore
stroke
grestore
} bind def
279.917 90 o
grestore
gsave
265.917355 66.281250 translate
0.000000 rotate
0.000000 0.000000 m /one glyphshow
13.997070 0.000000 m /five glyphshow
grestore
gsave
/o {
gsave
newpath
translate
0.8 setlinewidth
1 setlinejoin
0 setlinecap
0 0 m
0 -3.5 l

gsave
0.000 setgray
fill
grestore
stroke
grestore
} bind def
356.777 90 o
grestore
gsave
342.776860 66.281250 translate
0.000000 rotate
0.000000 0.000000 m /two glyphshow
13.997070 0.000000 m /zero glyphshow
grestore
gsave
/o {
gsave
newpath
translate
0.8 setlinewidth
1 setlinejoin
0 setlinecap
0 0 m
0 -3.5 l

gsave
0.000 setgray
fill
grestore
stroke
grestore
} bind def
433.636 90 o
grestore
gsave
419.636364 66.281250 translate
0.000000 rotate
0.000000 0.000000 m /two glyphshow
13.997070 0.000000 m /five glyphshow
grestore
gsave
/o {
gsave
newpath
translate
0.8 setlinewidth
1 setlinejoin
0 setlinecap
0 0 m
0 -3.5 l

gsave
0.000 setgray
fill
grestore
stroke
grestore
} bind def
510.496 90 o
grestore
gsave
496.495868 66.281250 translate
0.000000 rotate
0.000000 0.000000 m /three glyphshow
13.997070 0.000000 m /zero glyphshow
grestore
gsave
/o {
gsave
newpath
translate
0.8 setlinewidth
1 setlinejoin
0 setlinecap
0 0 m
0 -3.5 l

gsave
0.000 setgray
fill
grestore
stroke
grestore
} bind def
587.355 90 o
grestore
gsave
573.355372 66.281250 translate
0.000000 rotate
0.000000 0.000000 m /three glyphshow
13.997070 0.000000 m /five glyphshow
grestore
gsave
/o {
gsave
newpath
translate
0.8 setlinewidth
1 setlinejoin
0 setlinecap
0 0 m
0 -3.5 l

gsave
0.000 setgray
fill
grestore
stroke
grestore
} bind def
664.215 90 o
grestore
gsave
650.214876 66.281250 translate
0.000000 rotate
0.000000 0.000000 m /four glyphshow
13.997070 0.000000 m /zero glyphshow
grestore
gsave
/o {
gsave
newpath
translate
0.8 setlinewidth
1 setlinejoin
0 setlinecap
0 0 m
-3.5 0 l

gsave
0.000 setgray
fill
grestore
stroke
grestore
} bind def
180 90 o
grestore
gsave
124.000000 81.640625 translate
0.000000 rotate
0.000000 0.000000 m /zero glyphshow
13.997070 0.000000 m /period glyphshow
20.990234 0.000000 m /zero glyphshow
34.987305 0.000000 m /zero glyphshow
grestore
gsave
/o {
gsave
newpath
translate
0.8 setlinewidth
1 setlinejoin
0 setlinecap
0 0 m
-3.5 0 l

gsave
0.000 setgray
fill
grestore
stroke
grestore
} bind def
180 155.79 o
grestore
gsave
124.000000 147.430221 translate
0.000000 rotate
0.000000 0.000000 m /zero glyphshow
13.997070 0.000000 m /period glyphshow
20.990234 0.000000 m /zero glyphshow
34.987305 0.000000 m /five glyphshow
grestore
gsave
/o {
gsave
newpath
translate
0.8 setlinewidth
1 setlinejoin
0 setlinecap
0 0 m
-3.5 0 l

gsave
0.000 setgray
fill
grestore
stroke
grestore
} bind def
180 221.579 o
grestore
gsave
124.000000 213.219818 translate
0.000000 rotate
0.000000 0.000000 m /zero glyphshow
13.997070 0.000000 m /period glyphshow
20.990234 0.000000 m /one glyphshow
34.987305 0.000000 m /zero glyphshow
grestore
gsave
/o {
gsave
newpath
translate
0.8 setlinewidth
1 setlinejoin
0 setlinecap
0 0 m
-3.5 0 l

gsave
0.000 setgray
fill
grestore
stroke
grestore
} bind def
180 287.369 o
grestore
gsave
124.000000 279.009414 translate
0.000000 rotate
0.000000 0.000000 m /zero glyphshow
13.997070 0.000000 m /period glyphshow
20.990234 0.000000 m /one glyphshow
34.987305 0.000000 m /five glyphshow
grestore
gsave
115.421875 192.248580 translate
90.000000 rotate
0.000000 0.000000 m /p glyphshow
13.964844 0.000000 m /parenleft glyphshow
22.547852 0.000000 m /s glyphshow
34.009766 0.000000 m /parenright glyphshow
grestore
1.500 setlinewidth
2 setlinecap
0.173 0.627 0.173 setrgbcolor
gsave
507.3 247.1 180 90 clipbox
203.057851 90 m
207.716003 90 l
212.374155 90 l
217.032307 90 l
221.690458 90 l
226.34861 90.000001 l
231.006762 90.000002 l
235.664914 90.000004 l
240.323065 90.000009 l
244.981217 90.000019 l
249.639369 90.000038 l
254.297521 90.000077 l
258.955672 90.000152 l
263.613824 90.000296 l
268.271976 90.000566 l
272.930128 90.001065 l
277.588279 90.001972 l
282.246431 90.003595 l
286.904583 90.006449 l
291.562735 90.011387 l
296.220887 90.019787 l
300.879038 90.03384 l
305.53719 90.056961 l
310.195342 90.094362 l
314.853494 90.153852 l
319.511645 90.246884 l
324.169797 90.389909 l
328.827949 90.606062 l
333.486101 90.927155 l
338.144252 91.395952 l
342.802404 92.068572 l
347.460556 93.016846 l
352.118708 94.3303 l
356.77686 96.117376 l
361.435011 98.505399 l
366.093163 101.638755 l
370.751315 105.674753 l
375.409467 110.77673 l
380.067618 117.104164 l
384.72577 124.799834 l
389.383922 133.974474 l
394.042074 144.689815 l
398.700225 156.941369 l
403.358377 170.642698 l
408.016529 185.613197 l
412.674681 201.571418 l
417.332832 218.135773 l
421.990984 234.833878 l
426.649136 251.121039 l
431.307288 266.407349 l
435.96544 280.091817 l
440.623591 291.600914 l
445.281743 300.428179 l
449.939895 306.171097 l
454.598047 308.561509 l
459.256198 307.486379 l
463.91435 302.996649 l
468.572502 295.303241 l
473.230654 284.760629 l
477.888805 271.839763 l
482.546957 257.093237 l
487.205109 241.116266 l
491.863261 224.507309 l
496.521412 207.8319 l
501.179564 191.59263 l
505.837716 176.207262 l
510.495868 161.99591 l
515.15402 149.177162 l
519.812171 137.872131 l
524.470323 128.114806 l
529.128475 119.866684 l
533.786627 113.033642 l
538.444778 107.483185 l
543.10293 103.06053 l
547.761082 99.60248 l
552.419234 96.948456 l
557.077385 94.948523 l
561.735537 93.468527 l
566.393689 92.392748 l
571.051841 91.624543 l
575.709992 91.085545 l
580.368144 90.713915 l
585.026296 90.462091 l
589.684448 90.294369 l
594.3426 90.18456 l
599.000751 90.113885 l
603.658903 90.069163 l
608.317055 90.04134 l
612.975207 90.024319 l
617.633358 90.01408 l
622.29151 90.008023 l
626.949662 90.004499 l
631.607814 90.002484 l
636.265965 90.001349 l
640.924117 90.000721 l
645.582269 90.00038 l
650.240421 90.000197 l
654.898573 90.0001 l
659.556724 90.00005 l
664.214876 90.000025 l
stroke
grestore
0.839 0.153 0.157 setrgbcolor
gsave
507.3 247.1 180 90 clipbox
203.057851 90.000041 m
207.716003 90.000082 l
212.374155 90.00016 l
217.032307 90.000308 l
221.690458 90.000583 l
226.34861 90.001088 l
231.006762 90.001998 l
235.664914 90.003614 l
240.323065 90.006435 l
244.981217 90.011282 l
249.639369 90.019475 l
254.297521 90.033098 l
258.955672 90.055382 l
263.613824 90.091242 l
268.271976 90.148001 l
272.930128 90.236366 l
277.588279 90.371667 l
282.246431 90.575403 l
286.904583 90.87708 l
291.562735 91.316301 l
296.220887 91.945001 l
300.879038 92.829653 l
305.53719 94.053177 l
310.195342 95.716191 l
314.853494 97.93719 l
319.511645 100.851147 l
324.169797 104.60607 l
328.827949 109.357084 l
333.486101 115.257791 l
338.144252 122.448874 l
342.802404 131.04429 l
347.460556 141.115747 l
352.118708 152.676613 l
356.77686 165.666768 l
361.435011 179.940168 l
366.093163 195.257016 l
370.751315 211.282254 l
375.409467 227.591724 l
380.067618 243.686676 l
384.72577 259.016447 l
389.383922 273.008208 l
394.042074 285.101683 l
398.700225 294.786023 l
403.358377 301.63547 l
408.016529 305.340367 l
412.674681 305.730371 l
417.332832 302.787436 l
421.990984 296.647197 l
426.649136 287.588609 l
431.307288 276.012932 l
435.96544 262.414276 l
440.623591 247.344712 l
445.281743 231.377381 l
449.939895 215.070982 l
454.598047 198.938662 l
459.256198 183.423549 l
463.91435 168.882294 l
468.572502 155.577001 l
473.230654 143.675046 l
477.888805 133.25558 l
482.546957 124.321061 l
487.205109 116.811933 l
491.863261 110.622646 l
496.521412 105.617427 l
501.179564 101.64457 l
505.837716 98.548428 l
510.495868 96.178711 l
515.15402 94.39702 l
519.812171 93.08083 l
524.470323 92.125328 l
529.128475 91.443554 l
533.786627 90.965359 l
538.444778 90.635614 l
543.10293 90.412047 l
547.761082 90.262996 l
552.419234 90.165273 l
557.077385 90.102259 l
561.735537 90.062295 l
566.393689 90.037364 l
571.051841 90.022065 l
575.709992 90.012829 l
580.368144 90.007344 l
585.026296 90.004139 l
589.684448 90.002297 l
594.3426 90.001255 l
599.000751 90.000675 l
603.658903 90.000358 l
608.317055 90.000186 l
612.975207 90.000096 l
617.633358 90.000048 l
622.29151 90.000024 l
626.949662 90.000012 l
631.607814 90.000006 l
636.265965 90.000003 l
640.924117 90.000001 l
645.582269 90.000001 l
650.240421 90 l
654.898573 90 l
659.556724 90 l
664.214876 90 l
stroke
grestore
0.800 setlinewidth
0 setlinejoin
[] 0 setdash
0.000 setgray
gsave
180 90 m
180 337.090909 l
stroke
grestore
gsave
687.272727 90 m
687.272727 337.090909 l
stroke
grestore
gsave
180 90 m
687.272727 90 l
stroke
grestore
gsave
180 337.090909 m
687.272727 337.090909 l
stroke
grestore
/DejaVuSans findfont
26.400 scalefont
setfont
gsave
310.784801 343.309659 translate
0.000000 rotate
0.000000 0.000000 m /n glyphshow
16.726089 0.000000 m /underscore glyphshow
29.921402 0.000000 m /s glyphshow
43.670807 0.000000 m /a glyphshow
59.842789 0.000000 m /m glyphshow
85.550446 0.000000 m /p glyphshow
102.302307 0.000000 m /l glyphshow
109.634460 0.000000 m /e glyphshow
125.870880 0.000000 m /s glyphshow
139.620285 0.000000 m /space glyphshow
148.009094 0.000000 m /equal glyphshow
170.121552 0.000000 m /space glyphshow
178.510361 0.000000 m /one glyphshow
195.300873 0.000000 m /zero glyphshow
212.091385 0.000000 m /two glyphshow
228.881897 0.000000 m /four glyphshow
grestore
gsave
788.727273 90 m
1296 90 l
1296 337.090909 l
788.727273 337.090909 l
cl
1.000 setgray
fill
grestore
gsave
507.3 247.1 788.7 90 clipbox
939.630052 90 m
949.686459 90 l
949.686459 91.534726 l
939.630052 91.534726 l
cl
0.122 0.467 0.706 setrgbcolor
fill
grestore
gsave
507.3 247.1 788.7 90 clipbox
949.686459 90 m
959.742866 90 l
959.742866 92.046302 l
949.686459 92.046302 l
cl
0.122 0.467 0.706 setrgbcolor
fill
grestore
gsave
507.3 247.1 788.7 90 clipbox
959.742866 90 m
969.799273 90 l
969.799273 93.069452 l
959.742866 93.069452 l
cl
0.122 0.467 0.706 setrgbcolor
fill
grestore
gsave
507.3 247.1 788.7 90 clipbox
969.799273 90 m
979.85568 90 l
979.85568 99.208357 l
969.799273 99.208357 l
cl
0.122 0.467 0.706 setrgbcolor
fill
grestore
gsave
507.3 247.1 788.7 90 clipbox
979.85568 90 m
989.912086 90 l
989.912086 110.463015 l
979.85568 110.463015 l
cl
0.122 0.467 0.706 setrgbcolor
fill
grestore
gsave
507.3 247.1 788.7 90 clipbox
989.912086 90 m
999.968493 90 l
999.968493 117.625071 l
989.912086 117.625071 l
cl
0.122 0.467 0.706 setrgbcolor
fill
grestore
gsave
507.3 247.1 788.7 90 clipbox
999.968493 90 m
1010.0249 90 l
1010.0249 138.088086 l
999.968493 138.088086 l
cl
0.122 0.467 0.706 setrgbcolor
fill
grestore
gsave
507.3 247.1 788.7 90 clipbox
1010.0249 90 m
1020.081307 90 l
1020.081307 174.921513 l
1010.0249 174.921513 l
cl
0.122 0.467 0.706 setrgbcolor
fill
grestore
gsave
507.3 247.1 788.7 90 clipbox
1020.081307 90 m
1030.137714 90 l
1030.137714 211.754941 l
1020.081307 211.754941 l
cl
0.122 0.467 0.706 setrgbcolor
fill
grestore
gsave
507.3 247.1 788.7 90 clipbox
1030.137714 90 m
1040.194121 90 l
1040.194121 253.704122 l
1030.137714 253.704122 l
cl
0.122 0.467 0.706 setrgbcolor
fill
grestore
gsave
507.3 247.1 788.7 90 clipbox
1040.194121 90 m
1050.250528 90 l
1050.250528 288.491248 l
1040.194121 288.491248 l
cl
0.122 0.467 0.706 setrgbcolor
fill
grestore
gsave
507.3 247.1 788.7 90 clipbox
1050.250528 90 m
1060.306935 90 l
1060.306935 321.743648 l
1050.250528 321.743648 l
cl
0.122 0.467 0.706 setrgbcolor
fill
grestore
gsave
507.3 247.1 788.7 90 clipbox
1060.306935 90 m
1070.363342 90 l
1070.363342 325.324675 l
1060.306935 325.324675 l
cl
0.122 0.467 0.706 setrgbcolor
fill
grestore
gsave
507.3 247.1 788.7 90 clipbox
1070.363342 90 m
1080.419749 90 l
1080.419749 302.303783 l
1070.363342 302.303783 l
cl
0.122 0.467 0.706 setrgbcolor
fill
grestore
gsave
507.3 247.1 788.7 90 clipbox
1080.419749 90 m
1090.476156 90 l
1090.476156 294.118577 l
1080.419749 294.118577 l
cl
0.122 0.467 0.706 setrgbcolor
fill
grestore
gsave
507.3 247.1 788.7 90 clipbox
1090.476156 90 m
1100.532563 90 l
1100.532563 249.099944 l
1090.476156 249.099944 l
cl
0.122 0.467 0.706 setrgbcolor
fill
grestore
gsave
507.3 247.1 788.7 90 clipbox
1100.532563 90 m
1110.58897 90 l
1110.58897 223.521174 l
1100.532563 223.521174 l
cl
0.122 0.467 0.706 setrgbcolor
fill
grestore
gsave
507.3 247.1 788.7 90 clipbox
1110.58897 90 m
1120.645377 90 l
1120.645377 171.340486 l
1110.58897 171.340486 l
cl
0.122 0.467 0.706 setrgbcolor
fill
grestore
gsave
507.3 247.1 788.7 90 clipbox
1120.645377 90 m
1130.701784 90 l
1130.701784 155.481649 l
1120.645377 155.481649 l
cl
0.122 0.467 0.706 setrgbcolor
fill
grestore
gsave
507.3 247.1 788.7 90 clipbox
1130.701784 90 m
1140.758191 90 l
1140.758191 129.391304 l
1130.701784 129.391304 l
cl
0.122 0.467 0.706 setrgbcolor
fill
grestore
gsave
507.3 247.1 788.7 90 clipbox
1140.758191 90 m
1150.814597 90 l
1150.814597 113.532468 l
1140.758191 113.532468 l
cl
0.122 0.467 0.706 setrgbcolor
fill
grestore
gsave
507.3 247.1 788.7 90 clipbox
1150.814597 90 m
1160.871004 90 l
1160.871004 106.370412 l
1150.814597 106.370412 l
cl
0.122 0.467 0.706 setrgbcolor
fill
grestore
gsave
507.3 247.1 788.7 90 clipbox
1160.871004 90 m
1170.927411 90 l
1170.927411 97.673631 l
1160.871004 97.673631 l
cl
0.122 0.467 0.706 setrgbcolor
fill
grestore
gsave
507.3 247.1 788.7 90 clipbox
1170.927411 90 m
1180.983818 90 l
1180.983818 93.069452 l
1170.927411 93.069452 l
cl
0.122 0.467 0.706 setrgbcolor
fill
grestore
gsave
507.3 247.1 788.7 90 clipbox
1180.983818 90 m
1191.040225 90 l
1191.040225 91.534726 l
1180.983818 91.534726 l
cl
0.122 0.467 0.706 setrgbcolor
fill
grestore
gsave
507.3 247.1 788.7 90 clipbox
862.530767 90 m
873.775439 90 l
873.775439 90.457515 l
862.530767 90.457515 l
cl
1.000 0.498 0.055 setrgbcolor
fill
grestore
gsave
507.3 247.1 788.7 90 clipbox
873.775439 90 m
885.020111 90 l
885.020111 90 l
873.775439 90 l
cl
1.000 0.498 0.055 setrgbcolor
fill
grestore
gsave
507.3 247.1 788.7 90 clipbox
885.020111 90 m
896.264782 90 l
896.264782 91.830062 l
885.020111 91.830062 l
cl
1.000 0.498 0.055 setrgbcolor
fill
grestore
gsave
507.3 247.1 788.7 90 clipbox
896.264782 90 m
907.509454 90 l
907.509454 93.202608 l
896.264782 93.202608 l
cl
1.000 0.498 0.055 setrgbcolor
fill
grestore
gsave
507.3 247.1 788.7 90 clipbox
907.509454 90 m
918.754126 90 l
918.754126 95.032669 l
907.509454 95.032669 l
cl
1.000 0.498 0.055 setrgbcolor
fill
grestore
gsave
507.3 247.1 788.7 90 clipbox
918.754126 90 m
929.998797 90 l
929.998797 99.607823 l
918.754126 99.607823 l
cl
1.000 0.498 0.055 setrgbcolor
fill
grestore
gsave
507.3 247.1 788.7 90 clipbox
929.998797 90 m
941.243469 90 l
941.243469 112.418254 l
929.998797 112.418254 l
cl
1.000 0.498 0.055 setrgbcolor
fill
grestore
gsave
507.3 247.1 788.7 90 clipbox
941.243469 90 m
952.48814 90 l
952.48814 123.398623 l
941.243469 123.398623 l
cl
1.000 0.498 0.055 setrgbcolor
fill
grestore
gsave
507.3 247.1 788.7 90 clipbox
952.48814 90 m
963.732812 90 l
963.732812 156.33973 l
952.48814 156.33973 l
cl
1.000 0.498 0.055 setrgbcolor
fill
grestore
gsave
507.3 247.1 788.7 90 clipbox
963.732812 90 m
974.977484 90 l
974.977484 182.418107 l
963.732812 182.418107 l
cl
1.000 0.498 0.055 setrgbcolor
fill
grestore
gsave
507.3 247.1 788.7 90 clipbox
974.977484 90 m
986.222155 90 l
986.222155 235.489891 l
974.977484 235.489891 l
cl
1.000 0.498 0.055 setrgbcolor
fill
grestore
gsave
507.3 247.1 788.7 90 clipbox
986.222155 90 m
997.466827 90 l
997.466827 259.280691 l
986.222155 259.280691 l
cl
1.000 0.498 0.055 setrgbcolor
fill
grestore
gsave
507.3 247.1 788.7 90 clipbox
997.466827 90 m
1008.711499 90 l
1008.711499 292.221798 l
997.466827 292.221798 l
cl
1.000 0.498 0.055 setrgbcolor
fill
grestore
gsave
507.3 247.1 788.7 90 clipbox
1008.711499 90 m
1019.95617 90 l
1019.95617 310.522413 l
1008.711499 310.522413 l
cl
1.000 0.498 0.055 setrgbcolor
fill
grestore
gsave
507.3 247.1 788.7 90 clipbox
1019.95617 90 m
1031.200842 90 l
1031.200842 305.947259 l
1019.95617 305.947259 l
cl
1.000 0.498 0.055 setrgbcolor
fill
grestore
gsave
507.3 247.1 788.7 90 clipbox
1031.200842 90 m
1042.445513 90 l
1042.445513 302.744652 l
1031.200842 302.744652 l
cl
1.000 0.498 0.055 setrgbcolor
fill
grestore
gsave
507.3 247.1 788.7 90 clipbox
1042.445513 90 m
1053.690185 90 l
1053.690185 264.770875 l
1042.445513 264.770875 l
cl
1.000 0.498 0.055 setrgbcolor
fill
grestore
gsave
507.3 247.1 788.7 90 clipbox
1053.690185 90 m
1064.934857 90 l
1064.934857 213.986668 l
1053.690185 213.986668 l
cl
1.000 0.498 0.055 setrgbcolor
fill
grestore
gsave
507.3 247.1 788.7 90 clipbox
1064.934857 90 m
1076.179528 90 l
1076.179528 163.202461 l
1064.934857 163.202461 l
cl
1.000 0.498 0.055 setrgbcolor
fill
grestore
gsave
507.3 247.1 788.7 90 clipbox
1076.179528 90 m
1087.4242 90 l
1087.4242 137.581599 l
1076.179528 137.581599 l
cl
1.000 0.498 0.055 setrgbcolor
fill
grestore
gsave
507.3 247.1 788.7 90 clipbox
1087.4242 90 m
1098.668872 90 l
1098.668872 122.026077 l
1087.4242 122.026077 l
cl
1.000 0.498 0.055 setrgbcolor
fill
grestore
gsave
507.3 247.1 788.7 90 clipbox
1098.668872 90 m
1109.913543 90 l
1109.913543 104.182977 l
1098.668872 104.182977 l
cl
1.000 0.498 0.055 setrgbcolor
fill
grestore
gsave
507.3 247.1 788.7 90 clipbox
1109.913543 90 m
1121.158215 90 l
1121.158215 94.575154 l
1109.913543 94.575154 l
cl
1.000 0.498 0.055 setrgbcolor
fill
grestore
gsave
507.3 247.1 788.7 90 clipbox
1121.158215 90 m
1132.402887 90 l
1132.402887 90.457515 l
1121.158215 90.457515 l
cl
1.000 0.498 0.055 setrgbcolor
fill
grestore
gsave
507.3 247.1 788.7 90 clipbox
1132.402887 90 m
1143.647558 90 l
1143.647558 92.287577 l
1132.402887 92.287577 l
cl
1.000 0.498 0.055 setrgbcolor
fill
grestore
1 setlinejoin
0 setlinecap
[] 0 setdash
gsave
/o {
gsave
newpath
translate
0.8 setlinewidth
1 setlinejoin
0 setlinecap
0 0 m
0 -3.5 l

gsave
0.000 setgray
fill
grestore
stroke
grestore
} bind def
811.785 90 o
grestore
/DejaVuSans findfont
22.000 scalefont
setfont
gsave
797.785124 66.281250 translate
0.000000 rotate
0.000000 0.000000 m /one glyphshow
13.997070 0.000000 m /zero glyphshow
grestore
gsave
/o {
gsave
newpath
translate
0.8 setlinewidth
1 setlinejoin
0 setlinecap
0 0 m
0 -3.5 l

gsave
0.000 setgray
fill
grestore
stroke
grestore
} bind def
888.645 90 o
grestore
gsave
874.644628 66.281250 translate
0.000000 rotate
0.000000 0.000000 m /one glyphshow
13.997070 0.000000 m /five glyphshow
grestore
gsave
/o {
gsave
newpath
translate
0.8 setlinewidth
1 setlinejoin
0 setlinecap
0 0 m
0 -3.5 l

gsave
0.000 setgray
fill
grestore
stroke
grestore
} bind def
965.504 90 o
grestore
gsave
951.504132 66.281250 translate
0.000000 rotate
0.000000 0.000000 m /two glyphshow
13.997070 0.000000 m /zero glyphshow
grestore
gsave
/o {
gsave
newpath
translate
0.8 setlinewidth
1 setlinejoin
0 setlinecap
0 0 m
0 -3.5 l

gsave
0.000 setgray
fill
grestore
stroke
grestore
} bind def
1042.36 90 o
grestore
gsave
1028.363636 66.281250 translate
0.000000 rotate
0.000000 0.000000 m /two glyphshow
13.997070 0.000000 m /five glyphshow
grestore
gsave
/o {
gsave
newpath
translate
0.8 setlinewidth
1 setlinejoin
0 setlinecap
0 0 m
0 -3.5 l

gsave
0.000 setgray
fill
grestore
stroke
grestore
} bind def
1119.22 90 o
grestore
gsave
1105.223140 66.281250 translate
0.000000 rotate
0.000000 0.000000 m /three glyphshow
13.997070 0.000000 m /zero glyphshow
grestore
gsave
/o {
gsave
newpath
translate
0.8 setlinewidth
1 setlinejoin
0 setlinecap
0 0 m
0 -3.5 l

gsave
0.000 setgray
fill
grestore
stroke
grestore
} bind def
1196.08 90 o
grestore
gsave
1182.082645 66.281250 translate
0.000000 rotate
0.000000 0.000000 m /three glyphshow
13.997070 0.000000 m /five glyphshow
grestore
gsave
/o {
gsave
newpath
translate
0.8 setlinewidth
1 setlinejoin
0 setlinecap
0 0 m
0 -3.5 l

gsave
0.000 setgray
fill
grestore
stroke
grestore
} bind def
1272.94 90 o
grestore
gsave
1258.942149 66.281250 translate
0.000000 rotate
0.000000 0.000000 m /four glyphshow
13.997070 0.000000 m /zero glyphshow
grestore
gsave
/o {
gsave
newpath
translate
0.8 setlinewidth
1 setlinejoin
0 setlinecap
0 0 m
-3.5 0 l

gsave
0.000 setgray
fill
grestore
stroke
grestore
} bind def
788.727 90 o
grestore
gsave
732.727273 81.640625 translate
0.000000 rotate
0.000000 0.000000 m /zero glyphshow
13.997070 0.000000 m /period glyphshow
20.990234 0.000000 m /zero glyphshow
34.987305 0.000000 m /zero glyphshow
grestore
gsave
/o {
gsave
newpath
translate
0.8 setlinewidth
1 setlinejoin
0 setlinecap
0 0 m
-3.5 0 l

gsave
0.000 setgray
fill
grestore
stroke
grestore
} bind def
788.727 158.542 o
grestore
gsave
732.727273 150.182322 translate
0.000000 rotate
0.000000 0.000000 m /zero glyphshow
13.997070 0.000000 m /period glyphshow
20.990234 0.000000 m /zero glyphshow
34.987305 0.000000 m /five glyphshow
grestore
gsave
/o {
gsave
newpath
translate
0.8 setlinewidth
1 setlinejoin
0 setlinecap
0 0 m
-3.5 0 l

gsave
0.000 setgray
fill
grestore
stroke
grestore
} bind def
788.727 227.083 o
grestore
gsave
732.727273 218.724019 translate
0.000000 rotate
0.000000 0.000000 m /zero glyphshow
13.997070 0.000000 m /period glyphshow
20.990234 0.000000 m /one glyphshow
34.987305 0.000000 m /zero glyphshow
grestore
gsave
/o {
gsave
newpath
translate
0.8 setlinewidth
1 setlinejoin
0 setlinecap
0 0 m
-3.5 0 l

gsave
0.000 setgray
fill
grestore
stroke
grestore
} bind def
788.727 295.625 o
grestore
gsave
732.727273 287.265717 translate
0.000000 rotate
0.000000 0.000000 m /zero glyphshow
13.997070 0.000000 m /period glyphshow
20.990234 0.000000 m /one glyphshow
34.987305 0.000000 m /five glyphshow
grestore
gsave
724.149148 192.248580 translate
90.000000 rotate
0.000000 0.000000 m /p glyphshow
13.964844 0.000000 m /parenleft glyphshow
22.547852 0.000000 m /s glyphshow
34.009766 0.000000 m /parenright glyphshow
grestore
1.500 setlinewidth
2 setlinecap
0.173 0.627 0.173 setrgbcolor
gsave
507.3 247.1 788.7 90 clipbox
811.785124 90 m
816.443276 90 l
821.101427 90 l
825.759579 90 l
830.417731 90 l
835.075883 90 l
839.734035 90.000001 l
844.392186 90.000002 l
849.050338 90.000004 l
853.70849 90.000008 l
858.366642 90.000016 l
863.024793 90.000034 l
867.682945 90.000069 l
872.341097 90.000137 l
876.999249 90.000271 l
881.6574 90.000525 l
886.315552 90.001 l
890.973704 90.001876 l
895.631856 90.00346 l
900.290008 90.006278 l
904.948159 90.011207 l
909.606311 90.019678 l
914.264463 90.03399 l
918.922615 90.057755 l
923.580766 90.096538 l
928.238918 90.158735 l
932.89707 90.256756 l
937.555222 90.40854 l
942.213373 90.639467 l
946.871525 90.984624 l
951.529677 91.491389 l
956.187829 92.222187 l
960.84598 93.257158 l
965.504132 94.696408 l
970.162284 96.661337 l
974.820436 99.294494 l
979.478588 102.7573 l
984.136739 107.225049 l
988.794891 112.878675 l
993.453043 119.893032 l
998.111195 128.421804 l
1002.769346 138.579633 l
1007.427498 150.422599 l
1012.08565 163.928733 l
1016.743802 178.980701 l
1021.401953 195.35304 l
1026.060105 212.706344 l
1030.718257 230.590395 l
1035.376409 248.457566 l
1040.03456 265.686747 l
1044.692712 281.616859 l
1049.350864 295.587698 l
1054.009016 306.984756 l
1058.667168 315.283828 l
1063.325319 320.090932 l
1067.983471 321.173305 l
1072.641623 318.478087 l
1077.299775 312.136599 l
1081.957926 302.453738 l
1086.616078 289.883676 l
1091.27423 274.994566 l
1095.932382 258.426067 l
1100.590533 240.844103 l
1105.248685 222.897269 l
1109.906837 205.17878 l
1114.564989 188.196855 l
1119.22314 172.355267 l
1123.881292 157.944432 l
1128.539444 145.142323 l
1133.197596 134.023538 l
1137.855748 124.574309 l
1142.513899 116.711039 l
1147.172051 110.300033 l
1151.830203 105.176492 l
1156.488355 101.161299 l
1161.146506 98.074707 l
1165.804658 95.746554 l
1170.46281 94.023064 l
1175.120962 92.770608 l
1179.779113 91.876989 l
1184.437265 91.250885 l
1189.095417 90.820052 l
1193.753569 90.528852 l
1198.411721 90.335503 l
1203.069872 90.209376 l
1207.728024 90.128536 l
1212.386176 90.077623 l
1217.044328 90.046114 l
1221.702479 90.026948 l
1226.360631 90.015492 l
1231.018783 90.008761 l
1235.676935 90.004874 l
1240.335086 90.002667 l
1244.993238 90.001436 l
1249.65139 90.00076 l
1254.309542 90.000396 l
1258.967693 90.000203 l
1263.625845 90.000102 l
1268.283997 90.000051 l
1272.942149 90.000025 l
stroke
grestore
0.839 0.153 0.157 setrgbcolor
gsave
507.3 247.1 788.7 90 clipbox
811.785124 90.000044 m
816.443276 90.000088 l
821.101427 90.000172 l
825.759579 90.000334 l
830.417731 90.000637 l
835.075883 90.001195 l
839.734035 90.002206 l
844.392186 90.00401 l
849.050338 90.007175 l
853.70849 90.012634 l
858.366642 90.021896 l
863.024793 90.037351 l
867.682945 90.06271 l
872.341097 90.103629 l
876.999249 90.168549 l
881.6574 90.269819 l
886.315552 90.425131 l
890.973704 90.659289 l
895.631856 91.006309 l
900.290008 91.511783 l
904.948159 92.235375 l
909.606311 93.253223 l
914.264463 94.659936 l
918.922615 96.569749 l
923.580766 99.116332 l
928.238918 102.450712 l
932.89707 106.73674 l
937.555222 112.1437 l
942.213373 118.835809 l
946.871525 126.958705 l
951.529677 136.623404 l
956.187829 147.888708 l
960.84598 160.743473 l
965.504132 175.090591 l
970.162284 190.734756 l
974.820436 207.376129 l
979.478588 224.611717 l
984.136739 241.94576 l
988.794891 258.809524 l
993.453043 274.589906 l
998.111195 288.665105 l
1002.769346 300.444643 l
1007.427498 309.410193 l
1012.08565 315.153324 l
1016.743802 317.406339 l
1021.401953 316.062961 l
1026.060105 311.186643 l
1030.718257 303.005601 l
1035.376409 291.895105 l
1040.03456 278.348946 l
1044.692712 262.943101 l
1049.350864 246.295303 l
1054.009016 229.024472 l
1058.667168 211.713632 l
1063.325319 194.879312 l
1067.983471 178.949412 l
1072.641623 164.250429 l
1077.299775 151.003885 l
1081.957926 139.330858 l
1086.616078 129.262909 l
1091.27423 120.757351 l
1095.932382 113.714721 l
1100.590533 107.99657 l
1105.248685 103.442007 l
1109.906837 99.881915 l
1114.564989 97.150243 l
1119.22314 95.092172 l
1123.881292 93.569341 l
1128.539444 92.462496 l
1133.197596 91.672114 l
1137.855748 91.117529 l
1142.513899 90.735113 l
1147.172051 90.47594 l
1151.830203 90.303286 l
1156.488355 90.19022 l
1161.146506 90.117426 l
1165.804658 90.071346 l
1170.46281 90.042666 l
1175.120962 90.025113 l
1179.779113 90.014548 l
1184.437265 90.008295 l
1189.095417 90.004655 l
1193.753569 90.002571 l
1198.411721 90.001398 l
1203.069872 90.000748 l
1207.728024 90.000394 l
1212.386176 90.000204 l
1217.044328 90.000104 l
1221.702479 90.000052 l
1226.360631 90.000026 l
1231.018783 90.000013 l
1235.676935 90.000006 l
1240.335086 90.000003 l
1244.993238 90.000001 l
1249.65139 90.000001 l
1254.309542 90 l
1258.967693 90 l
1263.625845 90 l
1268.283997 90 l
1272.942149 90 l
stroke
grestore
0.800 setlinewidth
0 setlinejoin
[] 0 setdash
0.000 setgray
gsave
788.727273 90 m
788.727273 337.090909 l
stroke
grestore
gsave
1296 90 m
1296 337.090909 l
stroke
grestore
gsave
788.727273 90 m
1296 90 l
stroke
grestore
gsave
788.727273 337.090909 m
1296 337.090909 l
stroke
grestore
/DejaVuSans findfont
26.400 scalefont
setfont
gsave
919.512074 343.309659 translate
0.000000 rotate
0.000000 0.000000 m /n glyphshow
16.726089 0.000000 m /underscore glyphshow
29.921402 0.000000 m /s glyphshow
43.670807 0.000000 m /a glyphshow
59.842789 0.000000 m /m glyphshow
85.550446 0.000000 m /p glyphshow
102.302307 0.000000 m /l glyphshow
109.634460 0.000000 m /e glyphshow
125.870880 0.000000 m /s glyphshow
139.620285 0.000000 m /space glyphshow
148.009094 0.000000 m /equal glyphshow
170.121552 0.000000 m /space glyphshow
178.510361 0.000000 m /four glyphshow
195.300873 0.000000 m /zero glyphshow
212.091385 0.000000 m /nine glyphshow
228.881897 0.000000 m /six glyphshow
grestore

end
showpage
